{
"beam_intrinsics" : {"beam_altitude_angles": [21.5, 21.21, 20.92, 20.58, 20.26, 19.96, 19.65, 19.34, 19.02, 18.7, 18.39, 18.06, 17.74, 17.42, 17.08, 16.76, 16.42, 16.09, 15.77, 15.45, 15.1, 14.78, 14.44, 14.12, 13.77, 13.44, 13.08, 12.76, 12.41, 12.07, 11.73, 11.41, 11.05, 10.71, 10.37, 10.02, 9.69, 9.32, 8.98, 8.65, 8.289999999999999, 7.94, 7.6, 7.26, 6.91, 6.54, 6.2, 5.88, 5.5, 5.15, 4.81, 4.48, 4.1, 3.74, 3.39, 3.06, 2.68, 2.34, 1.99, 1.65, 1.28, 0.92, 0.57, 0.23, -0.14, -0.49, -0.83, -1.18, -1.54, -1.9, -2.25, -2.58, -2.97, -3.32, -3.64, -4.02, -4.37, -4.74, -5.07, -5.41, -5.78, -6.12, -6.48, -6.82, -7.19, -7.53, -7.86, -8.220000000000001, -8.57, -8.9, -9.26, -9.59, -9.960000000000001, -10.29, -10.62, -10.97, -11.32, -11.65, -11.99, -12.32, -12.69, -13.01, -13.36, -13.68, -14.02, -14.36, -14.68, -15.03, -15.36, -15.68, -16.02, -16.34, -16.66, -16.99, -17.32, -17.65, -17.96, -18.28, -18.6, -18.92, -19.23, -19.55, -19.86, -20.17, -20.47, -20.79, -21.1, -21.41], "beam_azimuth_angles": [4.27, 1.46, -1.38, -4.24, 4.28, 1.45, -1.39, -4.24, 4.3, 1.46, -1.39, -4.23, 4.29, 1.46, -1.39, -4.23, 4.28, 1.45, -1.39, -4.24, 4.28, 1.45, -1.39, -4.23, 4.29, 1.45, -1.4, -4.24, 4.27, 1.43, -1.41, -4.24, 4.27, 1.45, -1.4, -4.26, 4.28, 1.43, -1.41, -4.24, 4.26, 1.43, -1.4, -4.26, 4.27, 1.42, -1.43, -4.24, 4.26, 1.42, -1.41, -4.24, 4.26, 1.41, -1.43, -4.26, 4.25, 1.41, -1.41, -4.25, 4.25, 1.41, -1.43, -4.26, 4.23, 1.41, -1.43, -4.26, 4.25, 1.41, -1.43, -4.24, 4.23, 1.4, -1.41, -4.28, 4.24, 1.39, -1.43, -4.26, 4.23, 1.4, -1.44, -4.26, 4.22, 1.39, -1.42, -4.27, 4.23, 1.4, -1.44, -4.26, 4.22, 1.4, -1.43, -4.27, 4.23, 1.4, -1.43, -4.26, 4.22, 1.4, -1.44, -4.26, 4.23, 1.39, -1.43, -4.27, 4.22, 1.4, -1.44, -4.27, 4.23, 1.39, -1.43, -4.28, 4.22, 1.4, -1.44, -4.27, 4.22, 1.38, -1.45, -4.27, 4.22, 1.39, -1.43, -4.28], "lidar_origin_to_beam_origin_mm": 15.806}
,"config_txt" : {"udp_ip": "192.168.1.100", "udp_port_lidar": 7502, "udp_port_imu": 59331, "timestamp_mode": "TIME_FROM_INTERNAL_OSC", "sync_pulse_in_polarity": "ACTIVE_HIGH", "nmea_in_polarity": "ACTIVE_HIGH", "nmea_ignore_valid_char": 0, "nmea_baud_rate": "BAUD_9600", "nmea_leap_seconds": 0, "multipurpose_io_mode": "OFF", "sync_pulse_out_polarity": "ACTIVE_HIGH", "sync_pulse_out_frequency": 1, "sync_pulse_out_angle": 360, "sync_pulse_out_pulse_width": 10, "auto_start_flag": 1, "lidar_mode": "1024x20", "azimuth_window": [0, 36000], "phase_lock_enable": false, "phase_lock_offset": 0}
,"imu_intrinsics" : {"imu_to_sensor_transform": [1, 0, 0, 6.253, 0, 1, 0, -11.775, 0, 0, 1, 7.645, 0, 0, 0, 1]}, "json_calibration_version" : 2,
"lidar_data_format" : {"pixels_per_column": 128, "columns_per_packet": 16, "columns_per_frame": 1024, "pixel_shift_by_row": [24, 16, 8, 0, 24, 16, 8, 0, 24, 16, 8, 0, 24, 16, 8, 0, 24, 16, 8, 0, 24, 16, 8, 0, 24, 16, 8, 0, 24, 16, 8, 0, 24, 16, 8, 0, 24, 16, 8, 0, 24, 16, 8, 0, 24, 16, 8, 0, 24, 16, 8, 0, 24, 16, 8, 0, 24, 16, 8, 0, 24, 16, 8, 0, 24, 16, 8, 0, 24, 16, 8, 0, 24, 16, 8, 0, 24, 16, 8, 0, 24, 16, 8, 0, 24, 16, 8, 0, 24, 16, 8, 0, 24, 16, 8, 0, 24, 16, 8, 0, 24, 16, 8, 0, 24, 16, 8, 0, 24, 16, 8, 0, 24, 16, 8, 0, 24, 16, 8, 0, 24, 16, 8, 0, 24, 16, 8, 0]}
,"lidar_intrinsics" : {"lidar_to_sensor_transform": [-1, 0, 0, 0, 0, -1, 0, 0, 0, 0, 1, 36.18, 0, 0, 0, 1]}
,"sensor_info" : {"prod_line": "OS-1-128", "prod_pn": "840-102145-C", "prod_sn": "992036000393", "base_pn": "830-101845-E", "base_sn": "102005000086", "image_rev": "ousteros-image-prod-aries-v1.14.0-beta.12-20200709184423-staging", "build_rev": "v1.14.0-beta.12", "proto_rev": "v1.1.1", "build_date": "2020-07-09T17:22:17Z", "status": "RUNNING"}
}
