timestamp, object_id, zone names 
1614158552.271776, 519, 
1614158552.271776, 563, 
1614158552.271776, 574, 
1614158552.271776, 576, 
1614158552.271776, 578, 
1614158552.271776, 596, mainroad
1614158552.271776, 601, 
1614158552.271776, 603, 
1614158552.271776, 605, sidewalk
1614158552.271776, 608, mainroad
1614158552.271776, 619, sidewalk
1614158552.322243, 519, 
1614158552.322243, 563, 
1614158552.322243, 574, 
1614158552.322243, 576, 
1614158552.322243, 578, 
1614158552.322243, 596, mainroad
1614158552.322243, 601, 
1614158552.322243, 603, 
1614158552.322243, 605, sidewalk
1614158552.322243, 608, mainroad
1614158552.322243, 619, sidewalk
1614158552.371988, 519, 
1614158552.371988, 563, 
1614158552.371988, 574, 
1614158552.371988, 576, 
1614158552.371988, 578, 
1614158552.371988, 596, mainroad
1614158552.371988, 601, 
1614158552.371988, 603, 
1614158552.371988, 605, sidewalk
1614158552.371988, 608, mainroad
1614158552.371988, 619, sidewalk
1614158552.421995, 519, 
1614158552.421995, 563, 
1614158552.421995, 574, 
1614158552.421995, 576, 
1614158552.421995, 578, 
1614158552.421995, 596, mainroad
1614158552.421995, 601, 
1614158552.421995, 603, 
1614158552.421995, 605, sidewalk
1614158552.421995, 608, mainroad
1614158552.421995, 619, sidewalk
1614158552.471950, 519, 
1614158552.471950, 563, 
1614158552.471950, 574, 
1614158552.471950, 576, 
1614158552.471950, 578, 
1614158552.471950, 596, mainroad
1614158552.471950, 601, 
1614158552.471950, 603, 
1614158552.471950, 605, sidewalk
1614158552.471950, 608, mainroad
1614158552.471950, 619, sidewalk
1614158552.521986, 519, 
1614158552.521986, 563, 
1614158552.521986, 574, 
1614158552.521986, 576, 
1614158552.521986, 578, 
1614158552.521986, 596, mainroad
1614158552.521986, 601, 
1614158552.521986, 603, 
1614158552.521986, 605, sidewalk
1614158552.521986, 608, mainroad
1614158552.521986, 619, sidewalk
1614158552.572282, 519, 
1614158552.572282, 563, 
1614158552.572282, 574, 
1614158552.572282, 576, 
1614158552.572282, 578, 
1614158552.572282, 596, mainroad
1614158552.572282, 601, 
1614158552.572282, 603, 
1614158552.572282, 605, sidewalk
1614158552.572282, 608, mainroad
1614158552.572282, 619, sidewalk
1614158552.622289, 519, 
1614158552.622289, 563, 
1614158552.622289, 574, 
1614158552.622289, 576, 
1614158552.622289, 578, 
1614158552.622289, 596, mainroad
1614158552.622289, 601, 
1614158552.622289, 603, 
1614158552.622289, 605, sidewalk
1614158552.622289, 608, mainroad
1614158552.622289, 619, sidewalk
1614158552.672007, 519, 
1614158552.672007, 563, 
1614158552.672007, 574, 
1614158552.672007, 576, 
1614158552.672007, 578, 
1614158552.672007, 596, mainroad
1614158552.672007, 601, 
1614158552.672007, 603, 
1614158552.672007, 605, sidewalk
1614158552.672007, 608, mainroad
1614158552.672007, 619, sidewalk
1614158552.722346, 519, 
1614158552.722346, 563, 
1614158552.722346, 574, 
1614158552.722346, 576, 
1614158552.722346, 578, 
1614158552.722346, 596, mainroad
1614158552.722346, 601, 
1614158552.722346, 603, 
1614158552.722346, 605, sidewalk
1614158552.722346, 608, mainroad
1614158552.722346, 619, sidewalk
1614158552.771051, 519, 
1614158552.771051, 563, 
1614158552.771051, 574, 
1614158552.771051, 576, 
1614158552.771051, 578, 
1614158552.771051, 596, mainroad
1614158552.771051, 601, 
1614158552.771051, 603, 
1614158552.771051, 605, sidewalk
1614158552.771051, 608, mainroad
1614158552.771051, 619, sidewalk
1614158552.822297, 519, 
1614158552.822297, 563, 
1614158552.822297, 574, 
1614158552.822297, 576, 
1614158552.822297, 578, 
1614158552.822297, 596, mainroad
1614158552.822297, 601, 
1614158552.822297, 603, 
1614158552.822297, 605, sidewalk
1614158552.822297, 608, mainroad
1614158552.822297, 619, sidewalk
1614158552.871973, 519, 
1614158552.871973, 563, 
1614158552.871973, 574, 
1614158552.871973, 576, 
1614158552.871973, 578, 
1614158552.871973, 596, mainroad
1614158552.871973, 601, 
1614158552.871973, 603, 
1614158552.871973, 605, sidewalk
1614158552.871973, 608, mainroad
1614158552.871973, 619, sidewalk
1614158552.922152, 519, 
1614158552.922152, 563, 
1614158552.922152, 574, 
1614158552.922152, 576, 
1614158552.922152, 578, 
1614158552.922152, 596, mainroad
1614158552.922152, 601, 
1614158552.922152, 603, 
1614158552.922152, 605, sidewalk
1614158552.922152, 608, mainroad
1614158552.922152, 619, sidewalk
1614158552.972065, 519, 
1614158552.972065, 563, 
1614158552.972065, 574, 
1614158552.972065, 576, 
1614158552.972065, 578, 
1614158552.972065, 596, mainroad
1614158552.972065, 601, 
1614158552.972065, 603, 
1614158552.972065, 605, sidewalk
1614158552.972065, 608, mainroad
1614158552.972065, 619, sidewalk
1614158553.022161, 519, 
1614158553.022161, 563, 
1614158553.022161, 574, 
1614158553.022161, 576, 
1614158553.022161, 578, 
1614158553.022161, 596, mainroad
1614158553.022161, 601, 
1614158553.022161, 603, 
1614158553.022161, 605, sidewalk
1614158553.022161, 608, mainroad
1614158553.022161, 619, sidewalk
1614158553.072305, 519, 
1614158553.072305, 563, 
1614158553.072305, 574, 
1614158553.072305, 576, 
1614158553.072305, 578, 
1614158553.072305, 596, mainroad
1614158553.072305, 601, 
1614158553.072305, 603, 
1614158553.072305, 605, sidewalk
1614158553.072305, 608, mainroad
1614158553.072305, 619, sidewalk
1614158553.122300, 519, 
1614158553.122300, 563, 
1614158553.122300, 574, 
1614158553.122300, 576, 
1614158553.122300, 578, 
1614158553.122300, 596, mainroad
1614158553.122300, 601, 
1614158553.122300, 603, 
1614158553.122300, 605, sidewalk
1614158553.122300, 608, mainroad
1614158553.122300, 619, sidewalk
1614158553.172625, 519, 
1614158553.172625, 563, 
1614158553.172625, 574, 
1614158553.172625, 576, 
1614158553.172625, 578, 
1614158553.172625, 596, mainroad
1614158553.172625, 601, 
1614158553.172625, 603, 
1614158553.172625, 605, sidewalk
1614158553.172625, 608, mainroad
1614158553.172625, 619, sidewalk
1614158553.222217, 519, 
1614158553.222217, 563, 
1614158553.222217, 574, 
1614158553.222217, 576, 
1614158553.222217, 578, 
1614158553.222217, 596, mainroad
1614158553.222217, 601, 
1614158553.222217, 603, 
1614158553.222217, 605, sidewalk
1614158553.222217, 608, mainroad
1614158553.222217, 619, sidewalk
1614158553.272376, 519, 
1614158553.272376, 563, 
1614158553.272376, 574, 
1614158553.272376, 576, 
1614158553.272376, 578, 
1614158553.272376, 596, mainroad
1614158553.272376, 601, 
1614158553.272376, 603, 
1614158553.272376, 605, sidewalk
1614158553.272376, 608, mainroad
1614158553.272376, 619, sidewalk
1614158553.321942, 519, 
1614158553.321942, 563, 
1614158553.321942, 574, 
1614158553.321942, 576, 
1614158553.321942, 578, 
1614158553.321942, 596, mainroad
1614158553.321942, 601, 
1614158553.321942, 603, 
1614158553.321942, 605, sidewalk
1614158553.321942, 608, mainroad
1614158553.321942, 619, sidewalk
1614158553.321942, 623, mainroad
1614158553.372292, 519, 
1614158553.372292, 563, 
1614158553.372292, 574, 
1614158553.372292, 576, 
1614158553.372292, 578, 
1614158553.372292, 596, mainroad
1614158553.372292, 601, 
1614158553.372292, 603, 
1614158553.372292, 605, sidewalk
1614158553.372292, 608, mainroad
1614158553.372292, 619, sidewalk
1614158553.372292, 623, mainroad
1614158553.422202, 519, 
1614158553.422202, 563, 
1614158553.422202, 574, 
1614158553.422202, 576, 
1614158553.422202, 578, 
1614158553.422202, 596, mainroad
1614158553.422202, 601, 
1614158553.422202, 603, 
1614158553.422202, 605, sidewalk
1614158553.422202, 608, mainroad
1614158553.422202, 619, sidewalk
1614158553.422202, 623, mainroad
1614158553.472159, 519, 
1614158553.472159, 563, 
1614158553.472159, 574, 
1614158553.472159, 576, 
1614158553.472159, 578, 
1614158553.472159, 596, mainroad
1614158553.472159, 601, 
1614158553.472159, 603, 
1614158553.472159, 605, sidewalk
1614158553.472159, 608, mainroad
1614158553.472159, 619, sidewalk
1614158553.472159, 623, mainroad
1614158553.522317, 519, 
1614158553.522317, 563, 
1614158553.522317, 574, 
1614158553.522317, 576, 
1614158553.522317, 578, 
1614158553.522317, 596, mainroad
1614158553.522317, 601, 
1614158553.522317, 603, 
1614158553.522317, 605, sidewalk
1614158553.522317, 608, mainroad
1614158553.522317, 619, sidewalk
1614158553.522317, 623, mainroad
1614158553.572261, 519, 
1614158553.572261, 563, 
1614158553.572261, 574, 
1614158553.572261, 576, 
1614158553.572261, 578, 
1614158553.572261, 596, mainroad
1614158553.572261, 601, 
1614158553.572261, 603, 
1614158553.572261, 605, sidewalk
1614158553.572261, 608, mainroad
1614158553.572261, 619, sidewalk
1614158553.572261, 623, mainroad
1614158553.622345, 519, 
1614158553.622345, 563, 
1614158553.622345, 574, 
1614158553.622345, 576, 
1614158553.622345, 578, 
1614158553.622345, 596, mainroad
1614158553.622345, 601, 
1614158553.622345, 603, 
1614158553.622345, 605, sidewalk
1614158553.622345, 608, mainroad
1614158553.622345, 619, sidewalk
1614158553.622345, 623, mainroad
1614158553.622345, 625, 
1614158553.672081, 519, 
1614158553.672081, 563, 
1614158553.672081, 574, 
1614158553.672081, 576, 
1614158553.672081, 578, 
1614158553.672081, 596, mainroad
1614158553.672081, 601, 
1614158553.672081, 603, 
1614158553.672081, 605, sidewalk
1614158553.672081, 608, mainroad
1614158553.672081, 619, sidewalk
1614158553.672081, 623, mainroad
1614158553.672081, 625, 
1614158553.672081, 626, mainroad
1614158553.722335, 519, 
1614158553.722335, 563, 
1614158553.722335, 574, 
1614158553.722335, 576, 
1614158553.722335, 578, 
1614158553.722335, 596, mainroad
1614158553.722335, 601, 
1614158553.722335, 603, 
1614158553.722335, 605, sidewalk
1614158553.722335, 608, mainroad
1614158553.722335, 619, sidewalk
1614158553.722335, 623, mainroad
1614158553.722335, 625, 
1614158553.722335, 626, mainroad
1614158553.772062, 519, 
1614158553.772062, 563, 
1614158553.772062, 574, 
1614158553.772062, 576, 
1614158553.772062, 578, 
1614158553.772062, 596, mainroad
1614158553.772062, 601, 
1614158553.772062, 603, 
1614158553.772062, 605, sidewalk
1614158553.772062, 608, mainroad
1614158553.772062, 619, sidewalk
1614158553.772062, 623, mainroad
1614158553.772062, 625, 
1614158553.772062, 626, mainroad
1614158553.822325, 519, 
1614158553.822325, 563, 
1614158553.822325, 574, 
1614158553.822325, 576, 
1614158553.822325, 596, mainroad
1614158553.822325, 601, 
1614158553.822325, 603, 
1614158553.822325, 605, sidewalk
1614158553.822325, 608, mainroad
1614158553.822325, 619, sidewalk
1614158553.822325, 623, mainroad
1614158553.822325, 625, 
1614158553.822325, 626, mainroad
1614158553.872322, 519, 
1614158553.872322, 574, 
1614158553.872322, 576, 
1614158553.872322, 596, mainroad
1614158553.872322, 601, 
1614158553.872322, 603, 
1614158553.872322, 605, sidewalk
1614158553.872322, 608, mainroad
1614158553.872322, 619, sidewalk
1614158553.872322, 623, mainroad
1614158553.872322, 625, 
1614158553.872322, 626, mainroad
1614158553.922338, 519, 
1614158553.922338, 574, 
1614158553.922338, 576, 
1614158553.922338, 596, mainroad
1614158553.922338, 601, 
1614158553.922338, 603, 
1614158553.922338, 605, sidewalk
1614158553.922338, 608, mainroad
1614158553.922338, 619, sidewalk
1614158553.922338, 623, mainroad
1614158553.922338, 625, 
1614158553.922338, 626, mainroad
1614158553.972314, 519, 
1614158553.972314, 574, 
1614158553.972314, 576, 
1614158553.972314, 596, mainroad
1614158553.972314, 603, 
1614158553.972314, 605, sidewalk
1614158553.972314, 608, mainroad
1614158553.972314, 619, sidewalk
1614158553.972314, 623, mainroad
1614158553.972314, 625, 
1614158553.972314, 626, mainroad
1614158554.022349, 519, 
1614158554.022349, 574, 
1614158554.022349, 576, 
1614158554.022349, 596, mainroad
1614158554.022349, 603, 
1614158554.022349, 605, sidewalk
1614158554.022349, 608, mainroad
1614158554.022349, 619, sidewalk
1614158554.022349, 623, mainroad
1614158554.022349, 625, 
1614158554.022349, 626, mainroad
1614158554.071763, 519, 
1614158554.071763, 574, 
1614158554.071763, 576, 
1614158554.071763, 596, mainroad
1614158554.071763, 603, 
1614158554.071763, 605, sidewalk
1614158554.071763, 608, mainroad
1614158554.071763, 619, sidewalk
1614158554.071763, 623, mainroad
1614158554.071763, 625, 
1614158554.071763, 626, mainroad
1614158554.121716, 519, 
1614158554.121716, 574, 
1614158554.121716, 576, 
1614158554.121716, 596, mainroad
1614158554.121716, 603, 
1614158554.121716, 605, sidewalk
1614158554.121716, 608, mainroad
1614158554.121716, 619, sidewalk
1614158554.121716, 623, mainroad
1614158554.121716, 625, 
1614158554.121716, 626, mainroad
1614158554.171766, 519, 
1614158554.171766, 574, 
1614158554.171766, 576, 
1614158554.171766, 596, mainroad
1614158554.171766, 603, 
1614158554.171766, 605, sidewalk
1614158554.171766, 608, mainroad
1614158554.171766, 619, sidewalk
1614158554.171766, 623, mainroad
1614158554.171766, 625, 
1614158554.171766, 626, mainroad
1614158554.221794, 519, 
1614158554.221794, 574, 
1614158554.221794, 576, 
1614158554.221794, 596, mainroad
1614158554.221794, 603, 
1614158554.221794, 605, sidewalk
1614158554.221794, 608, mainroad
1614158554.221794, 619, sidewalk
1614158554.221794, 623, mainroad
1614158554.221794, 625, 
1614158554.221794, 626, mainroad
1614158554.271694, 519, 
1614158554.271694, 574, 
1614158554.271694, 576, 
1614158554.271694, 596, mainroad
1614158554.271694, 603, 
1614158554.271694, 605, sidewalk
1614158554.271694, 608, mainroad
1614158554.271694, 619, sidewalk
1614158554.271694, 623, mainroad
1614158554.271694, 625, 
1614158554.271694, 626, mainroad
1614158554.321733, 519, 
1614158554.321733, 574, 
1614158554.321733, 576, 
1614158554.321733, 596, mainroad
1614158554.321733, 603, 
1614158554.321733, 605, sidewalk
1614158554.321733, 608, mainroad
1614158554.321733, 619, sidewalk
1614158554.321733, 623, mainroad
1614158554.321733, 625, 
1614158554.321733, 626, mainroad
1614158554.371968, 519, 
1614158554.371968, 574, 
1614158554.371968, 576, 
1614158554.371968, 596, mainroad
1614158554.371968, 603, 
1614158554.371968, 605, sidewalk
1614158554.371968, 608, mainroad
1614158554.371968, 619, sidewalk
1614158554.371968, 623, mainroad
1614158554.371968, 625, 
1614158554.371968, 626, mainroad
1614158554.422192, 519, 
1614158554.422192, 574, 
1614158554.422192, 576, 
1614158554.422192, 596, mainroad
1614158554.422192, 603, 
1614158554.422192, 605, sidewalk
1614158554.422192, 608, mainroad
1614158554.422192, 619, sidewalk
1614158554.422192, 623, mainroad
1614158554.422192, 625, 
1614158554.422192, 626, mainroad
1614158554.472165, 519, 
1614158554.472165, 574, 
1614158554.472165, 576, 
1614158554.472165, 596, mainroad
1614158554.472165, 603, 
1614158554.472165, 605, sidewalk
1614158554.472165, 608, mainroad
1614158554.472165, 619, sidewalk
1614158554.472165, 623, mainroad
1614158554.472165, 625, 
1614158554.472165, 626, mainroad
1614158554.472165, 628, mainroad
1614158554.521526, 519, 
1614158554.521526, 574, 
1614158554.521526, 576, 
1614158554.521526, 596, mainroad
1614158554.521526, 603, 
1614158554.521526, 605, sidewalk
1614158554.521526, 608, mainroad
1614158554.521526, 619, sidewalk
1614158554.521526, 623, mainroad
1614158554.521526, 625, 
1614158554.521526, 626, mainroad
1614158554.521526, 628, mainroad
1614158554.571795, 519, 
1614158554.571795, 574, 
1614158554.571795, 576, 
1614158554.571795, 596, mainroad
1614158554.571795, 603, 
1614158554.571795, 605, sidewalk
1614158554.571795, 608, mainroad
1614158554.571795, 619, sidewalk
1614158554.571795, 623, mainroad
1614158554.571795, 625, 
1614158554.571795, 626, mainroad
1614158554.571795, 628, mainroad
1614158554.621757, 519, 
1614158554.621757, 574, 
1614158554.621757, 576, 
1614158554.621757, 596, mainroad
1614158554.621757, 603, 
1614158554.621757, 605, sidewalk
1614158554.621757, 608, mainroad
1614158554.621757, 619, sidewalk
1614158554.621757, 623, mainroad
1614158554.621757, 625, 
1614158554.621757, 626, mainroad
1614158554.621757, 628, mainroad
1614158554.671778, 519, 
1614158554.671778, 574, 
1614158554.671778, 576, 
1614158554.671778, 596, mainroad
1614158554.671778, 603, 
1614158554.671778, 605, sidewalk
1614158554.671778, 608, mainroad
1614158554.671778, 619, sidewalk
1614158554.671778, 623, mainroad
1614158554.671778, 625, 
1614158554.671778, 626, mainroad
1614158554.671778, 628, mainroad
1614158554.721750, 519, 
1614158554.721750, 574, 
1614158554.721750, 576, 
1614158554.721750, 596, mainroad
1614158554.721750, 603, 
1614158554.721750, 605, sidewalk
1614158554.721750, 608, mainroad
1614158554.721750, 619, sidewalk
1614158554.721750, 623, mainroad
1614158554.721750, 625, 
1614158554.721750, 626, mainroad
1614158554.721750, 628, mainroad
1614158554.771751, 519, 
1614158554.771751, 574, 
1614158554.771751, 576, 
1614158554.771751, 596, mainroad
1614158554.771751, 603, 
1614158554.771751, 605, sidewalk
1614158554.771751, 608, mainroad
1614158554.771751, 619, sidewalk
1614158554.771751, 623, mainroad
1614158554.771751, 625, 
1614158554.771751, 626, mainroad
1614158554.771751, 628, mainroad
1614158554.771751, 632, mainroad
1614158554.821808, 519, 
1614158554.821808, 574, 
1614158554.821808, 576, 
1614158554.821808, 596, mainroad
1614158554.821808, 603, 
1614158554.821808, 605, sidewalk
1614158554.821808, 608, mainroad
1614158554.821808, 619, sidewalk
1614158554.821808, 623, mainroad
1614158554.821808, 625, 
1614158554.821808, 626, mainroad
1614158554.821808, 628, mainroad
1614158554.821808, 632, mainroad
1614158554.872119, 519, 
1614158554.872119, 574, 
1614158554.872119, 576, 
1614158554.872119, 596, mainroad
1614158554.872119, 603, 
1614158554.872119, 605, sidewalk
1614158554.872119, 608, mainroad
1614158554.872119, 619, sidewalk
1614158554.872119, 623, mainroad
1614158554.872119, 625, 
1614158554.872119, 626, mainroad
1614158554.872119, 628, mainroad
1614158554.872119, 632, mainroad
1614158554.921641, 519, 
1614158554.921641, 574, 
1614158554.921641, 576, 
1614158554.921641, 596, mainroad
1614158554.921641, 603, 
1614158554.921641, 605, sidewalk
1614158554.921641, 608, mainroad
1614158554.921641, 619, sidewalk
1614158554.921641, 623, mainroad
1614158554.921641, 625, 
1614158554.921641, 626, mainroad
1614158554.921641, 628, mainroad
1614158554.921641, 632, mainroad
1614158554.972215, 519, 
1614158554.972215, 574, 
1614158554.972215, 576, 
1614158554.972215, 596, mainroad
1614158554.972215, 603, 
1614158554.972215, 605, sidewalk
1614158554.972215, 608, mainroad
1614158554.972215, 619, sidewalk
1614158554.972215, 623, mainroad
1614158554.972215, 625, 
1614158554.972215, 626, mainroad
1614158554.972215, 628, mainroad
1614158554.972215, 632, mainroad
1614158555.021682, 519, 
1614158555.021682, 574, 
1614158555.021682, 576, 
1614158555.021682, 596, mainroad
1614158555.021682, 603, 
1614158555.021682, 605, sidewalk
1614158555.021682, 608, mainroad
1614158555.021682, 619, sidewalk
1614158555.021682, 623, mainroad
1614158555.021682, 625, 
1614158555.021682, 626, mainroad
1614158555.021682, 628, mainroad
1614158555.021682, 632, mainroad
1614158555.071607, 519, 
1614158555.071607, 574, 
1614158555.071607, 576, 
1614158555.071607, 596, mainroad
1614158555.071607, 603, 
1614158555.071607, 605, sidewalk
1614158555.071607, 608, mainroad
1614158555.071607, 619, sidewalk
1614158555.071607, 623, mainroad
1614158555.071607, 625, 
1614158555.071607, 626, mainroad
1614158555.071607, 628, mainroad
1614158555.071607, 632, mainroad
1614158555.071607, 633, mainroad
1614158555.121809, 519, 
1614158555.121809, 574, 
1614158555.121809, 576, 
1614158555.121809, 596, mainroad
1614158555.121809, 603, 
1614158555.121809, 605, sidewalk
1614158555.121809, 608, mainroad
1614158555.121809, 619, sidewalk
1614158555.121809, 623, mainroad
1614158555.121809, 625, 
1614158555.121809, 626, mainroad
1614158555.121809, 628, mainroad
1614158555.121809, 632, mainroad
1614158555.121809, 633, mainroad
1614158555.171746, 519, 
1614158555.171746, 574, 
1614158555.171746, 576, 
1614158555.171746, 596, mainroad
1614158555.171746, 603, 
1614158555.171746, 605, sidewalk
1614158555.171746, 608, mainroad
1614158555.171746, 619, sidewalk
1614158555.171746, 623, mainroad
1614158555.171746, 625, 
1614158555.171746, 626, mainroad
1614158555.171746, 628, mainroad
1614158555.171746, 632, mainroad
1614158555.171746, 633, mainroad
1614158555.221815, 519, 
1614158555.221815, 574, 
1614158555.221815, 576, 
1614158555.221815, 596, mainroad
1614158555.221815, 603, 
1614158555.221815, 605, sidewalk
1614158555.221815, 608, mainroad
1614158555.221815, 619, sidewalk
1614158555.221815, 623, mainroad
1614158555.221815, 625, 
1614158555.221815, 626, mainroad
1614158555.221815, 628, mainroad
1614158555.221815, 632, mainroad
1614158555.221815, 633, mainroad
1614158555.271148, 519, 
1614158555.271148, 574, 
1614158555.271148, 576, 
1614158555.271148, 596, mainroad
1614158555.271148, 603, 
1614158555.271148, 605, sidewalk
1614158555.271148, 608, mainroad
1614158555.271148, 619, sidewalk
1614158555.271148, 623, mainroad
1614158555.271148, 625, 
1614158555.271148, 626, mainroad
1614158555.271148, 628, mainroad
1614158555.271148, 632, mainroad
1614158555.271148, 633, mainroad
1614158555.321838, 519, 
1614158555.321838, 574, 
1614158555.321838, 576, 
1614158555.321838, 596, mainroad
1614158555.321838, 603, 
1614158555.321838, 605, sidewalk
1614158555.321838, 608, mainroad
1614158555.321838, 619, sidewalk
1614158555.321838, 623, mainroad
1614158555.321838, 625, 
1614158555.321838, 626, mainroad
1614158555.321838, 628, mainroad
1614158555.321838, 632, mainroad
1614158555.321838, 633, mainroad
1614158555.371848, 519, 
1614158555.371848, 574, 
1614158555.371848, 576, 
1614158555.371848, 596, mainroad
1614158555.371848, 603, 
1614158555.371848, 605, sidewalk
1614158555.371848, 608, mainroad
1614158555.371848, 619, sidewalk
1614158555.371848, 623, mainroad
1614158555.371848, 625, 
1614158555.371848, 626, mainroad
1614158555.371848, 628, mainroad
1614158555.371848, 632, mainroad
1614158555.371848, 633, mainroad
1614158555.421814, 519, 
1614158555.421814, 574, 
1614158555.421814, 576, 
1614158555.421814, 596, mainroad
1614158555.421814, 603, 
1614158555.421814, 605, sidewalk
1614158555.421814, 608, mainroad
1614158555.421814, 619, sidewalk
1614158555.421814, 623, mainroad
1614158555.421814, 625, 
1614158555.421814, 626, mainroad
1614158555.421814, 628, mainroad
1614158555.421814, 632, mainroad
1614158555.421814, 633, mainroad
1614158555.471762, 519, 
1614158555.471762, 574, 
1614158555.471762, 576, 
1614158555.471762, 596, mainroad
1614158555.471762, 603, 
1614158555.471762, 605, sidewalk
1614158555.471762, 608, mainroad
1614158555.471762, 619, sidewalk
1614158555.471762, 623, mainroad
1614158555.471762, 625, 
1614158555.471762, 626, mainroad
1614158555.471762, 628, mainroad
1614158555.471762, 632, mainroad
1614158555.471762, 633, mainroad
1614158555.471762, 636, mainroad
1614158555.521774, 519, 
1614158555.521774, 574, 
1614158555.521774, 576, 
1614158555.521774, 596, mainroad
1614158555.521774, 603, 
1614158555.521774, 605, sidewalk
1614158555.521774, 608, mainroad
1614158555.521774, 619, sidewalk
1614158555.521774, 623, mainroad
1614158555.521774, 625, 
1614158555.521774, 626, mainroad
1614158555.521774, 628, mainroad
1614158555.521774, 632, mainroad
1614158555.521774, 633, mainroad
1614158555.521774, 636, mainroad
1614158555.572124, 519, 
1614158555.572124, 574, 
1614158555.572124, 576, 
1614158555.572124, 596, mainroad
1614158555.572124, 603, 
1614158555.572124, 605, sidewalk
1614158555.572124, 608, mainroad
1614158555.572124, 619, sidewalk
1614158555.572124, 623, mainroad
1614158555.572124, 625, 
1614158555.572124, 626, mainroad
1614158555.572124, 628, mainroad
1614158555.572124, 632, mainroad
1614158555.572124, 633, mainroad
1614158555.572124, 636, mainroad
1614158555.621715, 519, 
1614158555.621715, 574, 
1614158555.621715, 576, 
1614158555.621715, 596, mainroad
1614158555.621715, 603, 
1614158555.621715, 605, sidewalk
1614158555.621715, 608, mainroad
1614158555.621715, 619, sidewalk
1614158555.621715, 623, mainroad
1614158555.621715, 625, 
1614158555.621715, 626, mainroad
1614158555.621715, 628, mainroad
1614158555.621715, 632, mainroad
1614158555.621715, 633, mainroad
1614158555.621715, 636, mainroad
1614158555.672196, 519, 
1614158555.672196, 574, 
1614158555.672196, 576, 
1614158555.672196, 596, mainroad
1614158555.672196, 603, 
1614158555.672196, 605, sidewalk
1614158555.672196, 608, mainroad
1614158555.672196, 619, sidewalk
1614158555.672196, 623, mainroad
1614158555.672196, 625, 
1614158555.672196, 626, mainroad
1614158555.672196, 628, mainroad
1614158555.672196, 632, mainroad
1614158555.672196, 633, mainroad
1614158555.672196, 636, mainroad
1614158555.721638, 519, 
1614158555.721638, 574, 
1614158555.721638, 576, 
1614158555.721638, 596, mainroad
1614158555.721638, 603, 
1614158555.721638, 605, sidewalk
1614158555.721638, 608, mainroad
1614158555.721638, 619, sidewalk
1614158555.721638, 623, mainroad
1614158555.721638, 625, 
1614158555.721638, 626, mainroad
1614158555.721638, 628, mainroad
1614158555.721638, 632, mainroad
1614158555.721638, 633, mainroad
1614158555.721638, 636, mainroad
1614158555.771557, 519, 
1614158555.771557, 574, 
1614158555.771557, 576, 
1614158555.771557, 596, mainroad
1614158555.771557, 603, 
1614158555.771557, 605, sidewalk
1614158555.771557, 608, mainroad
1614158555.771557, 619, sidewalk
1614158555.771557, 623, mainroad
1614158555.771557, 625, 
1614158555.771557, 626, mainroad
1614158555.771557, 628, mainroad
1614158555.771557, 632, mainroad
1614158555.771557, 633, mainroad
1614158555.771557, 636, mainroad
1614158555.822090, 519, 
1614158555.822090, 574, 
1614158555.822090, 576, 
1614158555.822090, 596, mainroad
1614158555.822090, 603, 
1614158555.822090, 605, sidewalk
1614158555.822090, 608, mainroad
1614158555.822090, 619, sidewalk
1614158555.822090, 623, mainroad
1614158555.822090, 625, 
1614158555.822090, 626, mainroad
1614158555.822090, 628, mainroad
1614158555.822090, 632, mainroad
1614158555.822090, 633, mainroad
1614158555.822090, 636, mainroad
1614158555.871631, 519, 
1614158555.871631, 574, 
1614158555.871631, 576, 
1614158555.871631, 596, mainroad
1614158555.871631, 603, 
1614158555.871631, 605, sidewalk
1614158555.871631, 608, mainroad
1614158555.871631, 619, sidewalk
1614158555.871631, 623, mainroad
1614158555.871631, 625, 
1614158555.871631, 626, mainroad
1614158555.871631, 628, mainroad
1614158555.871631, 632, mainroad
1614158555.871631, 633, mainroad
1614158555.871631, 636, mainroad
1614158555.921968, 519, 
1614158555.921968, 574, 
1614158555.921968, 576, 
1614158555.921968, 596, mainroad
1614158555.921968, 603, 
1614158555.921968, 605, sidewalk
1614158555.921968, 608, mainroad
1614158555.921968, 619, 
1614158555.921968, 623, mainroad
1614158555.921968, 625, 
1614158555.921968, 626, mainroad
1614158555.921968, 628, mainroad
1614158555.921968, 632, mainroad
1614158555.921968, 633, mainroad
1614158555.921968, 636, mainroad
1614158555.971207, 519, 
1614158555.971207, 574, 
1614158555.971207, 576, 
1614158555.971207, 596, mainroad
1614158555.971207, 603, 
1614158555.971207, 605, sidewalk
1614158555.971207, 608, mainroad
1614158555.971207, 619, 
1614158555.971207, 623, mainroad
1614158555.971207, 625, 
1614158555.971207, 626, mainroad
1614158555.971207, 628, mainroad
1614158555.971207, 632, mainroad
1614158555.971207, 633, mainroad
1614158555.971207, 636, mainroad
1614158556.021962, 519, 
1614158556.021962, 574, 
1614158556.021962, 576, 
1614158556.021962, 596, mainroad
1614158556.021962, 603, 
1614158556.021962, 605, sidewalk
1614158556.021962, 608, mainroad
1614158556.021962, 619, 
1614158556.021962, 623, mainroad
1614158556.021962, 625, 
1614158556.021962, 626, mainroad
1614158556.021962, 628, mainroad
1614158556.021962, 632, mainroad
1614158556.021962, 633, mainroad
1614158556.021962, 636, mainroad
1614158556.071190, 519, 
1614158556.071190, 574, 
1614158556.071190, 576, 
1614158556.071190, 596, mainroad
1614158556.071190, 603, 
1614158556.071190, 605, sidewalk
1614158556.071190, 608, mainroad
1614158556.071190, 619, 
1614158556.071190, 623, mainroad
1614158556.071190, 625, 
1614158556.071190, 626, mainroad
1614158556.071190, 628, mainroad
1614158556.071190, 632, mainroad
1614158556.071190, 633, mainroad
1614158556.071190, 636, mainroad
1614158556.122082, 519, 
1614158556.122082, 574, 
1614158556.122082, 576, 
1614158556.122082, 596, mainroad
1614158556.122082, 603, 
1614158556.122082, 605, sidewalk
1614158556.122082, 608, mainroad
1614158556.122082, 619, 
1614158556.122082, 623, mainroad
1614158556.122082, 625, 
1614158556.122082, 626, mainroad
1614158556.122082, 628, mainroad
1614158556.122082, 632, mainroad
1614158556.122082, 633, mainroad
1614158556.122082, 636, mainroad
1614158556.171904, 519, 
1614158556.171904, 574, 
1614158556.171904, 576, 
1614158556.171904, 596, mainroad
1614158556.171904, 603, 
1614158556.171904, 605, sidewalk
1614158556.171904, 608, mainroad
1614158556.171904, 619, 
1614158556.171904, 623, mainroad
1614158556.171904, 625, 
1614158556.171904, 626, mainroad
1614158556.171904, 628, mainroad
1614158556.171904, 632, mainroad
1614158556.171904, 633, mainroad
1614158556.171904, 636, mainroad
1614158556.221885, 519, 
1614158556.221885, 574, 
1614158556.221885, 576, 
1614158556.221885, 596, mainroad
1614158556.221885, 603, 
1614158556.221885, 605, sidewalk
1614158556.221885, 608, mainroad
1614158556.221885, 619, 
1614158556.221885, 623, mainroad
1614158556.221885, 625, 
1614158556.221885, 626, mainroad
1614158556.221885, 628, mainroad
1614158556.221885, 632, mainroad
1614158556.221885, 633, mainroad
1614158556.221885, 636, mainroad
1614158556.271911, 519, 
1614158556.271911, 574, 
1614158556.271911, 576, 
1614158556.271911, 596, mainroad
1614158556.271911, 603, 
1614158556.271911, 605, sidewalk
1614158556.271911, 608, mainroad
1614158556.271911, 619, 
1614158556.271911, 623, mainroad
1614158556.271911, 625, 
1614158556.271911, 626, mainroad
1614158556.271911, 628, mainroad
1614158556.271911, 632, mainroad
1614158556.271911, 633, mainroad
1614158556.271911, 636, mainroad
1614158556.320659, 519, 
1614158556.320659, 574, 
1614158556.320659, 576, 
1614158556.320659, 596, mainroad
1614158556.320659, 603, 
1614158556.320659, 605, sidewalk
1614158556.320659, 608, mainroad
1614158556.320659, 619, 
1614158556.320659, 623, mainroad
1614158556.320659, 625, 
1614158556.320659, 626, mainroad
1614158556.320659, 628, mainroad
1614158556.320659, 632, mainroad
1614158556.320659, 633, mainroad
1614158556.320659, 636, mainroad
1614158556.370632, 519, 
1614158556.370632, 574, 
1614158556.370632, 576, 
1614158556.370632, 596, mainroad
1614158556.370632, 603, 
1614158556.370632, 605, sidewalk
1614158556.370632, 608, mainroad
1614158556.370632, 619, 
1614158556.370632, 623, mainroad
1614158556.370632, 625, 
1614158556.370632, 626, mainroad
1614158556.370632, 628, mainroad
1614158556.370632, 632, mainroad
1614158556.370632, 633, mainroad
1614158556.370632, 636, mainroad
1614158556.370632, 638, mainroad
1614158556.420665, 519, 
1614158556.420665, 574, 
1614158556.420665, 576, 
1614158556.420665, 596, mainroad
1614158556.420665, 603, 
1614158556.420665, 605, sidewalk
1614158556.420665, 608, mainroad
1614158556.420665, 619, 
1614158556.420665, 623, mainroad
1614158556.420665, 625, 
1614158556.420665, 626, mainroad
1614158556.420665, 628, mainroad
1614158556.420665, 632, mainroad
1614158556.420665, 633, mainroad
1614158556.420665, 636, mainroad
1614158556.420665, 638, mainroad
1614158556.470679, 519, 
1614158556.470679, 574, 
1614158556.470679, 576, 
1614158556.470679, 596, mainroad
1614158556.470679, 603, 
1614158556.470679, 605, sidewalk
1614158556.470679, 608, mainroad
1614158556.470679, 619, 
1614158556.470679, 623, mainroad
1614158556.470679, 625, 
1614158556.470679, 626, mainroad
1614158556.470679, 628, mainroad
1614158556.470679, 632, mainroad
1614158556.470679, 633, mainroad
1614158556.470679, 636, mainroad
1614158556.470679, 638, mainroad
1614158556.521400, 519, 
1614158556.521400, 574, 
1614158556.521400, 576, 
1614158556.521400, 596, mainroad
1614158556.521400, 603, 
1614158556.521400, 605, sidewalk
1614158556.521400, 608, mainroad
1614158556.521400, 619, 
1614158556.521400, 623, mainroad
1614158556.521400, 625, 
1614158556.521400, 626, mainroad
1614158556.521400, 628, mainroad
1614158556.521400, 632, mainroad
1614158556.521400, 633, mainroad
1614158556.521400, 636, mainroad
1614158556.521400, 638, mainroad
1614158556.571389, 519, 
1614158556.571389, 574, 
1614158556.571389, 576, 
1614158556.571389, 596, mainroad
1614158556.571389, 603, 
1614158556.571389, 605, sidewalk
1614158556.571389, 608, mainroad
1614158556.571389, 619, 
1614158556.571389, 623, mainroad
1614158556.571389, 625, 
1614158556.571389, 626, mainroad
1614158556.571389, 628, mainroad
1614158556.571389, 632, mainroad
1614158556.571389, 633, mainroad
1614158556.571389, 636, mainroad
1614158556.571389, 638, mainroad
1614158556.621279, 519, 
1614158556.621279, 574, 
1614158556.621279, 576, 
1614158556.621279, 596, mainroad
1614158556.621279, 603, 
1614158556.621279, 605, sidewalk
1614158556.621279, 608, mainroad
1614158556.621279, 619, 
1614158556.621279, 623, mainroad
1614158556.621279, 625, 
1614158556.621279, 626, mainroad
1614158556.621279, 628, mainroad
1614158556.621279, 632, mainroad
1614158556.621279, 633, mainroad
1614158556.621279, 636, mainroad
1614158556.621279, 638, mainroad
1614158556.671457, 519, 
1614158556.671457, 574, 
1614158556.671457, 576, 
1614158556.671457, 596, mainroad
1614158556.671457, 603, 
1614158556.671457, 605, sidewalk
1614158556.671457, 608, mainroad
1614158556.671457, 619, 
1614158556.671457, 623, mainroad
1614158556.671457, 625, 
1614158556.671457, 626, mainroad
1614158556.671457, 628, mainroad
1614158556.671457, 632, mainroad
1614158556.671457, 633, mainroad
1614158556.671457, 636, mainroad
1614158556.671457, 638, mainroad
1614158556.721484, 519, 
1614158556.721484, 574, 
1614158556.721484, 576, 
1614158556.721484, 596, mainroad
1614158556.721484, 603, 
1614158556.721484, 605, sidewalk
1614158556.721484, 608, mainroad
1614158556.721484, 619, 
1614158556.721484, 623, mainroad
1614158556.721484, 625, 
1614158556.721484, 626, mainroad
1614158556.721484, 628, mainroad
1614158556.721484, 632, mainroad
1614158556.721484, 633, mainroad
1614158556.721484, 636, mainroad
1614158556.721484, 638, mainroad
1614158556.771417, 519, 
1614158556.771417, 574, 
1614158556.771417, 576, 
1614158556.771417, 596, mainroad
1614158556.771417, 603, 
1614158556.771417, 605, sidewalk
1614158556.771417, 608, mainroad
1614158556.771417, 619, 
1614158556.771417, 623, mainroad
1614158556.771417, 625, 
1614158556.771417, 626, mainroad
1614158556.771417, 628, mainroad
1614158556.771417, 632, mainroad
1614158556.771417, 633, mainroad
1614158556.771417, 636, mainroad
1614158556.771417, 638, mainroad
1614158556.822024, 519, 
1614158556.822024, 574, 
1614158556.822024, 576, 
1614158556.822024, 596, mainroad
1614158556.822024, 603, 
1614158556.822024, 605, sidewalk
1614158556.822024, 608, mainroad
1614158556.822024, 619, 
1614158556.822024, 623, mainroad
1614158556.822024, 625, 
1614158556.822024, 626, mainroad
1614158556.822024, 628, mainroad
1614158556.822024, 632, mainroad
1614158556.822024, 633, mainroad
1614158556.822024, 636, mainroad
1614158556.822024, 638, mainroad
1614158556.871420, 519, 
1614158556.871420, 574, 
1614158556.871420, 576, 
1614158556.871420, 596, mainroad
1614158556.871420, 603, 
1614158556.871420, 605, sidewalk
1614158556.871420, 608, mainroad
1614158556.871420, 619, 
1614158556.871420, 623, mainroad
1614158556.871420, 625, 
1614158556.871420, 626, mainroad
1614158556.871420, 628, mainroad
1614158556.871420, 632, mainroad
1614158556.871420, 633, mainroad
1614158556.871420, 636, mainroad
1614158556.871420, 638, mainroad
1614158556.921455, 519, 
1614158556.921455, 574, 
1614158556.921455, 576, 
1614158556.921455, 596, mainroad
1614158556.921455, 603, 
1614158556.921455, 605, sidewalk
1614158556.921455, 608, mainroad
1614158556.921455, 619, 
1614158556.921455, 623, mainroad
1614158556.921455, 625, 
1614158556.921455, 626, mainroad
1614158556.921455, 628, mainroad
1614158556.921455, 632, mainroad
1614158556.921455, 633, mainroad
1614158556.921455, 636, mainroad
1614158556.921455, 638, mainroad
1614158556.971573, 519, 
1614158556.971573, 574, 
1614158556.971573, 576, 
1614158556.971573, 596, mainroad
1614158556.971573, 603, 
1614158556.971573, 605, sidewalk
1614158556.971573, 608, mainroad
1614158556.971573, 619, 
1614158556.971573, 623, mainroad
1614158556.971573, 625, 
1614158556.971573, 626, mainroad
1614158556.971573, 628, mainroad
1614158556.971573, 632, mainroad
1614158556.971573, 633, mainroad
1614158556.971573, 636, mainroad
1614158556.971573, 638, mainroad
1614158557.021636, 519, 
1614158557.021636, 574, 
1614158557.021636, 576, 
1614158557.021636, 596, mainroad
1614158557.021636, 603, 
1614158557.021636, 605, sidewalk
1614158557.021636, 608, mainroad
1614158557.021636, 619, 
1614158557.021636, 623, mainroad
1614158557.021636, 625, 
1614158557.021636, 626, mainroad
1614158557.021636, 628, mainroad
1614158557.021636, 632, mainroad
1614158557.021636, 633, mainroad
1614158557.021636, 636, mainroad
1614158557.021636, 638, mainroad
1614158557.021636, 641, mainroad
1614158557.071299, 519, 
1614158557.071299, 576, 
1614158557.071299, 596, mainroad
1614158557.071299, 603, 
1614158557.071299, 605, sidewalk
1614158557.071299, 608, mainroad
1614158557.071299, 619, 
1614158557.071299, 623, mainroad
1614158557.071299, 625, 
1614158557.071299, 626, mainroad
1614158557.071299, 628, mainroad
1614158557.071299, 632, mainroad
1614158557.071299, 633, mainroad
1614158557.071299, 636, mainroad
1614158557.071299, 638, mainroad
1614158557.071299, 641, mainroad
1614158557.120607, 519, 
1614158557.120607, 576, 
1614158557.120607, 596, mainroad
1614158557.120607, 603, 
1614158557.120607, 605, sidewalk
1614158557.120607, 608, mainroad
1614158557.120607, 619, 
1614158557.120607, 623, mainroad
1614158557.120607, 625, 
1614158557.120607, 626, mainroad
1614158557.120607, 628, mainroad
1614158557.120607, 632, mainroad
1614158557.120607, 633, mainroad
1614158557.120607, 636, mainroad
1614158557.120607, 638, mainroad
1614158557.120607, 641, mainroad
1614158557.171485, 519, 
1614158557.171485, 576, 
1614158557.171485, 596, mainroad
1614158557.171485, 603, 
1614158557.171485, 605, sidewalk
1614158557.171485, 608, mainroad
1614158557.171485, 619, 
1614158557.171485, 623, mainroad
1614158557.171485, 625, 
1614158557.171485, 626, mainroad
1614158557.171485, 628, mainroad
1614158557.171485, 632, mainroad
1614158557.171485, 633, mainroad
1614158557.171485, 636, mainroad
1614158557.171485, 638, mainroad
1614158557.171485, 641, mainroad
1614158557.220601, 519, 
1614158557.220601, 576, 
1614158557.220601, 596, mainroad
1614158557.220601, 603, 
1614158557.220601, 605, sidewalk
1614158557.220601, 608, mainroad
1614158557.220601, 619, 
1614158557.220601, 623, mainroad
1614158557.220601, 625, 
1614158557.220601, 626, mainroad
1614158557.220601, 628, mainroad
1614158557.220601, 632, mainroad
1614158557.220601, 633, mainroad
1614158557.220601, 636, mainroad
1614158557.220601, 638, mainroad
1614158557.220601, 641, mainroad
1614158557.270596, 519, 
1614158557.270596, 576, 
1614158557.270596, 596, mainroad
1614158557.270596, 603, 
1614158557.270596, 605, sidewalk
1614158557.270596, 608, mainroad
1614158557.270596, 619, 
1614158557.270596, 623, mainroad
1614158557.270596, 625, 
1614158557.270596, 626, mainroad
1614158557.270596, 628, mainroad
1614158557.270596, 632, mainroad
1614158557.270596, 633, mainroad
1614158557.270596, 636, mainroad
1614158557.270596, 638, mainroad
1614158557.270596, 641, mainroad
1614158557.320967, 519, 
1614158557.320967, 576, 
1614158557.320967, 596, mainroad
1614158557.320967, 603, 
1614158557.320967, 605, sidewalk
1614158557.320967, 608, mainroad
1614158557.320967, 619, 
1614158557.320967, 623, mainroad
1614158557.320967, 625, 
1614158557.320967, 626, mainroad
1614158557.320967, 628, mainroad
1614158557.320967, 632, mainroad
1614158557.320967, 633, mainroad
1614158557.320967, 636, mainroad
1614158557.320967, 638, mainroad
1614158557.320967, 641, mainroad
1614158557.371449, 519, 
1614158557.371449, 576, 
1614158557.371449, 596, mainroad
1614158557.371449, 603, 
1614158557.371449, 605, sidewalk
1614158557.371449, 608, mainroad
1614158557.371449, 619, 
1614158557.371449, 623, mainroad
1614158557.371449, 625, 
1614158557.371449, 626, mainroad
1614158557.371449, 628, mainroad
1614158557.371449, 632, mainroad
1614158557.371449, 633, mainroad
1614158557.371449, 636, mainroad
1614158557.371449, 638, mainroad
1614158557.371449, 641, mainroad
1614158557.420983, 519, 
1614158557.420983, 576, 
1614158557.420983, 596, mainroad
1614158557.420983, 603, 
1614158557.420983, 605, sidewalk
1614158557.420983, 608, mainroad
1614158557.420983, 619, 
1614158557.420983, 623, mainroad
1614158557.420983, 625, 
1614158557.420983, 626, mainroad
1614158557.420983, 628, mainroad
1614158557.420983, 632, mainroad
1614158557.420983, 633, mainroad
1614158557.420983, 636, mainroad
1614158557.420983, 638, mainroad
1614158557.420983, 641, mainroad
1614158557.471084, 519, 
1614158557.471084, 576, 
1614158557.471084, 596, mainroad
1614158557.471084, 603, 
1614158557.471084, 605, sidewalk
1614158557.471084, 608, mainroad
1614158557.471084, 619, 
1614158557.471084, 623, mainroad
1614158557.471084, 625, 
1614158557.471084, 626, mainroad
1614158557.471084, 628, mainroad
1614158557.471084, 632, mainroad
1614158557.471084, 633, mainroad
1614158557.471084, 636, mainroad
1614158557.471084, 638, mainroad
1614158557.471084, 641, mainroad
1614158557.520965, 519, 
1614158557.520965, 576, 
1614158557.520965, 596, mainroad
1614158557.520965, 603, 
1614158557.520965, 605, sidewalk
1614158557.520965, 608, mainroad
1614158557.520965, 619, 
1614158557.520965, 623, mainroad
1614158557.520965, 625, 
1614158557.520965, 626, mainroad
1614158557.520965, 628, mainroad
1614158557.520965, 632, mainroad
1614158557.520965, 633, mainroad
1614158557.520965, 636, mainroad
1614158557.520965, 638, mainroad
1614158557.520965, 641, mainroad
1614158557.571042, 519, 
1614158557.571042, 576, 
1614158557.571042, 596, mainroad
1614158557.571042, 603, 
1614158557.571042, 605, sidewalk
1614158557.571042, 608, mainroad
1614158557.571042, 619, 
1614158557.571042, 623, mainroad
1614158557.571042, 625, 
1614158557.571042, 626, mainroad
1614158557.571042, 628, mainroad
1614158557.571042, 632, mainroad
1614158557.571042, 633, mainroad
1614158557.571042, 636, mainroad
1614158557.571042, 638, mainroad
1614158557.571042, 641, mainroad
1614158557.620935, 519, 
1614158557.620935, 576, 
1614158557.620935, 596, mainroad
1614158557.620935, 603, 
1614158557.620935, 605, sidewalk
1614158557.620935, 608, mainroad
1614158557.620935, 619, 
1614158557.620935, 623, mainroad
1614158557.620935, 625, 
1614158557.620935, 626, mainroad
1614158557.620935, 628, mainroad
1614158557.620935, 632, mainroad
1614158557.620935, 633, mainroad
1614158557.620935, 636, mainroad
1614158557.620935, 638, mainroad
1614158557.620935, 641, mainroad
1614158557.671718, 519, 
1614158557.671718, 576, 
1614158557.671718, 596, 
1614158557.671718, 603, 
1614158557.671718, 605, sidewalk
1614158557.671718, 608, mainroad
1614158557.671718, 619, 
1614158557.671718, 623, mainroad
1614158557.671718, 625, 
1614158557.671718, 626, mainroad
1614158557.671718, 628, mainroad
1614158557.671718, 632, mainroad
1614158557.671718, 633, mainroad
1614158557.671718, 636, mainroad
1614158557.671718, 638, mainroad
1614158557.671718, 641, mainroad
1614158557.721463, 519, 
1614158557.721463, 576, 
1614158557.721463, 596, 
1614158557.721463, 603, 
1614158557.721463, 605, sidewalk
1614158557.721463, 608, mainroad
1614158557.721463, 619, 
1614158557.721463, 623, mainroad
1614158557.721463, 625, 
1614158557.721463, 626, mainroad
1614158557.721463, 628, mainroad
1614158557.721463, 632, mainroad
1614158557.721463, 633, mainroad
1614158557.721463, 636, mainroad
1614158557.721463, 638, mainroad
1614158557.721463, 641, mainroad
1614158557.771704, 519, 
1614158557.771704, 576, 
1614158557.771704, 596, 
1614158557.771704, 603, 
1614158557.771704, 605, sidewalk
1614158557.771704, 608, mainroad
1614158557.771704, 619, 
1614158557.771704, 623, mainroad
1614158557.771704, 625, 
1614158557.771704, 626, mainroad
1614158557.771704, 628, mainroad
1614158557.771704, 632, mainroad
1614158557.771704, 633, mainroad
1614158557.771704, 636, mainroad
1614158557.771704, 638, mainroad
1614158557.771704, 641, mainroad
1614158557.820927, 519, 
1614158557.820927, 576, 
1614158557.820927, 596, 
1614158557.820927, 603, 
1614158557.820927, 605, sidewalk
1614158557.820927, 608, mainroad
1614158557.820927, 619, 
1614158557.820927, 623, mainroad
1614158557.820927, 625, 
1614158557.820927, 626, mainroad
1614158557.820927, 628, mainroad
1614158557.820927, 632, mainroad
1614158557.820927, 633, mainroad
1614158557.820927, 636, mainroad
1614158557.820927, 638, mainroad
1614158557.820927, 641, mainroad
1614158557.870978, 519, 
1614158557.870978, 576, 
1614158557.870978, 596, 
1614158557.870978, 603, 
1614158557.870978, 605, sidewalk
1614158557.870978, 608, mainroad
1614158557.870978, 619, 
1614158557.870978, 623, mainroad
1614158557.870978, 625, 
1614158557.870978, 626, mainroad
1614158557.870978, 628, mainroad
1614158557.870978, 632, mainroad
1614158557.870978, 633, mainroad
1614158557.870978, 636, mainroad
1614158557.870978, 638, mainroad
1614158557.870978, 641, mainroad
1614158557.921390, 519, 
1614158557.921390, 576, 
1614158557.921390, 596, 
1614158557.921390, 603, 
1614158557.921390, 605, sidewalk
1614158557.921390, 619, 
1614158557.921390, 623, mainroad
1614158557.921390, 625, 
1614158557.921390, 626, mainroad
1614158557.921390, 628, mainroad
1614158557.921390, 632, mainroad
1614158557.921390, 633, mainroad
1614158557.921390, 636, mainroad
1614158557.921390, 638, mainroad
1614158557.921390, 641, mainroad
1614158557.971673, 519, 
1614158557.971673, 576, 
1614158557.971673, 596, 
1614158557.971673, 603, 
1614158557.971673, 605, sidewalk
1614158557.971673, 619, 
1614158557.971673, 623, mainroad
1614158557.971673, 625, 
1614158557.971673, 626, mainroad
1614158557.971673, 628, mainroad
1614158557.971673, 632, mainroad
1614158557.971673, 633, mainroad
1614158557.971673, 636, mainroad
1614158557.971673, 638, mainroad
1614158557.971673, 641, mainroad
1614158558.021724, 519, 
1614158558.021724, 576, 
1614158558.021724, 596, 
1614158558.021724, 603, 
1614158558.021724, 605, sidewalk
1614158558.021724, 619, 
1614158558.021724, 623, mainroad
1614158558.021724, 625, 
1614158558.021724, 626, mainroad
1614158558.021724, 628, mainroad
1614158558.021724, 632, mainroad
1614158558.021724, 633, mainroad
1614158558.021724, 636, mainroad
1614158558.021724, 638, mainroad
1614158558.021724, 641, mainroad
1614158558.071261, 519, 
1614158558.071261, 576, 
1614158558.071261, 596, 
1614158558.071261, 603, 
1614158558.071261, 605, sidewalk
1614158558.071261, 619, 
1614158558.071261, 623, mainroad
1614158558.071261, 625, 
1614158558.071261, 626, mainroad
1614158558.071261, 628, mainroad
1614158558.071261, 632, mainroad
1614158558.071261, 633, mainroad
1614158558.071261, 636, mainroad
1614158558.071261, 638, mainroad
1614158558.071261, 641, mainroad
1614158558.121113, 519, 
1614158558.121113, 576, 
1614158558.121113, 596, 
1614158558.121113, 603, 
1614158558.121113, 605, sidewalk
1614158558.121113, 619, 
1614158558.121113, 623, mainroad
1614158558.121113, 625, 
1614158558.121113, 626, mainroad
1614158558.121113, 628, mainroad
1614158558.121113, 632, mainroad
1614158558.121113, 633, mainroad
1614158558.121113, 636, mainroad
1614158558.121113, 638, mainroad
1614158558.121113, 641, mainroad
1614158558.171173, 519, 
1614158558.171173, 576, 
1614158558.171173, 596, 
1614158558.171173, 603, 
1614158558.171173, 605, sidewalk
1614158558.171173, 619, 
1614158558.171173, 623, mainroad
1614158558.171173, 625, 
1614158558.171173, 626, mainroad
1614158558.171173, 628, mainroad
1614158558.171173, 632, mainroad
1614158558.171173, 633, mainroad
1614158558.171173, 636, mainroad
1614158558.171173, 638, mainroad
1614158558.171173, 641, mainroad
1614158558.221664, 519, 
1614158558.221664, 576, 
1614158558.221664, 596, 
1614158558.221664, 603, 
1614158558.221664, 605, sidewalk
1614158558.221664, 619, 
1614158558.221664, 623, mainroad
1614158558.221664, 625, 
1614158558.221664, 626, mainroad
1614158558.221664, 628, mainroad
1614158558.221664, 632, mainroad
1614158558.221664, 633, mainroad
1614158558.221664, 636, mainroad
1614158558.221664, 638, mainroad
1614158558.221664, 641, mainroad
1614158558.271104, 519, 
1614158558.271104, 576, 
1614158558.271104, 596, 
1614158558.271104, 603, 
1614158558.271104, 605, sidewalk
1614158558.271104, 619, 
1614158558.271104, 623, mainroad
1614158558.271104, 625, 
1614158558.271104, 626, mainroad
1614158558.271104, 628, mainroad
1614158558.271104, 632, mainroad
1614158558.271104, 633, mainroad
1614158558.271104, 636, mainroad
1614158558.271104, 638, mainroad
1614158558.271104, 641, mainroad
1614158558.321760, 519, 
1614158558.321760, 576, 
1614158558.321760, 596, 
1614158558.321760, 603, 
1614158558.321760, 605, sidewalk
1614158558.321760, 619, 
1614158558.321760, 623, mainroad
1614158558.321760, 625, 
1614158558.321760, 626, mainroad
1614158558.321760, 628, mainroad
1614158558.321760, 632, mainroad
1614158558.321760, 633, mainroad
1614158558.321760, 636, mainroad
1614158558.321760, 638, mainroad
1614158558.321760, 641, mainroad
1614158558.371107, 519, 
1614158558.371107, 576, 
1614158558.371107, 596, 
1614158558.371107, 603, 
1614158558.371107, 605, sidewalk
1614158558.371107, 619, 
1614158558.371107, 623, mainroad
1614158558.371107, 625, 
1614158558.371107, 626, mainroad
1614158558.371107, 628, mainroad
1614158558.371107, 632, mainroad
1614158558.371107, 633, mainroad
1614158558.371107, 636, mainroad
1614158558.371107, 638, mainroad
1614158558.371107, 641, mainroad
1614158558.421470, 519, 
1614158558.421470, 576, 
1614158558.421470, 596, 
1614158558.421470, 603, 
1614158558.421470, 605, sidewalk
1614158558.421470, 619, 
1614158558.421470, 623, mainroad
1614158558.421470, 625, 
1614158558.421470, 626, mainroad
1614158558.421470, 628, mainroad
1614158558.421470, 632, mainroad
1614158558.421470, 633, mainroad
1614158558.421470, 636, mainroad
1614158558.421470, 638, mainroad
1614158558.421470, 641, mainroad
1614158558.471030, 519, 
1614158558.471030, 576, 
1614158558.471030, 596, 
1614158558.471030, 605, sidewalk
1614158558.471030, 619, 
1614158558.471030, 623, mainroad
1614158558.471030, 625, 
1614158558.471030, 626, mainroad
1614158558.471030, 628, mainroad
1614158558.471030, 632, mainroad
1614158558.471030, 633, mainroad
1614158558.471030, 636, mainroad
1614158558.471030, 638, mainroad
1614158558.471030, 641, mainroad
1614158558.521053, 519, 
1614158558.521053, 576, 
1614158558.521053, 596, 
1614158558.521053, 605, sidewalk
1614158558.521053, 619, 
1614158558.521053, 623, mainroad
1614158558.521053, 625, 
1614158558.521053, 626, mainroad
1614158558.521053, 628, mainroad
1614158558.521053, 632, mainroad
1614158558.521053, 633, mainroad
1614158558.521053, 636, mainroad
1614158558.521053, 638, mainroad
1614158558.521053, 641, mainroad
1614158558.570970, 519, 
1614158558.570970, 576, 
1614158558.570970, 596, 
1614158558.570970, 605, sidewalk
1614158558.570970, 619, 
1614158558.570970, 625, 
1614158558.570970, 626, mainroad
1614158558.570970, 628, mainroad
1614158558.570970, 632, mainroad
1614158558.570970, 633, mainroad
1614158558.570970, 636, mainroad
1614158558.570970, 638, mainroad
1614158558.570970, 641, mainroad
1614158558.620958, 519, 
1614158558.620958, 576, 
1614158558.620958, 596, 
1614158558.620958, 605, sidewalk
1614158558.620958, 619, 
1614158558.620958, 625, 
1614158558.620958, 626, mainroad
1614158558.620958, 628, mainroad
1614158558.620958, 632, mainroad
1614158558.620958, 633, mainroad
1614158558.620958, 636, mainroad
1614158558.620958, 638, mainroad
1614158558.620958, 641, mainroad
1614158558.671796, 519, 
1614158558.671796, 576, 
1614158558.671796, 596, 
1614158558.671796, 605, sidewalk
1614158558.671796, 619, 
1614158558.671796, 625, 
1614158558.671796, 626, mainroad
1614158558.671796, 628, mainroad
1614158558.671796, 632, mainroad
1614158558.671796, 633, mainroad
1614158558.671796, 636, mainroad
1614158558.671796, 638, mainroad
1614158558.671796, 641, mainroad
1614158558.721790, 519, 
1614158558.721790, 576, 
1614158558.721790, 596, 
1614158558.721790, 605, sidewalk
1614158558.721790, 619, 
1614158558.721790, 625, 
1614158558.721790, 626, mainroad
1614158558.721790, 628, mainroad
1614158558.721790, 632, mainroad
1614158558.721790, 633, mainroad
1614158558.721790, 636, mainroad
1614158558.721790, 638, mainroad
1614158558.721790, 641, mainroad
1614158558.771755, 519, 
1614158558.771755, 576, 
1614158558.771755, 596, 
1614158558.771755, 605, sidewalk
1614158558.771755, 619, 
1614158558.771755, 625, 
1614158558.771755, 626, mainroad
1614158558.771755, 628, mainroad
1614158558.771755, 632, mainroad
1614158558.771755, 633, mainroad
1614158558.771755, 636, mainroad
1614158558.771755, 638, mainroad
1614158558.771755, 641, mainroad
1614158558.821734, 519, 
1614158558.821734, 576, 
1614158558.821734, 596, 
1614158558.821734, 605, sidewalk
1614158558.821734, 619, 
1614158558.821734, 625, 
1614158558.821734, 626, mainroad
1614158558.821734, 628, mainroad
1614158558.821734, 632, mainroad
1614158558.821734, 633, mainroad
1614158558.821734, 636, mainroad
1614158558.821734, 638, mainroad
1614158558.821734, 641, mainroad
1614158558.870940, 519, 
1614158558.870940, 576, 
1614158558.870940, 596, 
1614158558.870940, 605, sidewalk
1614158558.870940, 619, 
1614158558.870940, 625, 
1614158558.870940, 626, mainroad
1614158558.870940, 628, mainroad
1614158558.870940, 632, mainroad
1614158558.870940, 633, mainroad
1614158558.870940, 636, mainroad
1614158558.870940, 638, mainroad
1614158558.870940, 641, mainroad
1614158558.920920, 519, 
1614158558.920920, 576, 
1614158558.920920, 605, sidewalk
1614158558.920920, 619, 
1614158558.920920, 625, 
1614158558.920920, 626, mainroad
1614158558.920920, 628, mainroad
1614158558.920920, 632, mainroad
1614158558.920920, 633, mainroad
1614158558.920920, 636, mainroad
1614158558.920920, 638, mainroad
1614158558.920920, 641, mainroad
1614158558.970889, 519, 
1614158558.970889, 576, 
1614158558.970889, 605, sidewalk
1614158558.970889, 619, 
1614158558.970889, 625, 
1614158558.970889, 626, mainroad
1614158558.970889, 628, mainroad
1614158558.970889, 632, mainroad
1614158558.970889, 633, mainroad
1614158558.970889, 636, mainroad
1614158558.970889, 638, mainroad
1614158558.970889, 641, mainroad
1614158559.021579, 519, 
1614158559.021579, 576, 
1614158559.021579, 605, sidewalk
1614158559.021579, 619, 
1614158559.021579, 625, 
1614158559.021579, 626, mainroad
1614158559.021579, 628, mainroad
1614158559.021579, 632, mainroad
1614158559.021579, 633, mainroad
1614158559.021579, 636, mainroad
1614158559.021579, 638, mainroad
1614158559.021579, 641, mainroad
1614158559.021579, 643, 
1614158559.070847, 519, 
1614158559.070847, 576, 
1614158559.070847, 605, sidewalk
1614158559.070847, 619, 
1614158559.070847, 625, 
1614158559.070847, 626, mainroad
1614158559.070847, 628, mainroad
1614158559.070847, 632, mainroad
1614158559.070847, 633, mainroad
1614158559.070847, 636, mainroad
1614158559.070847, 638, mainroad
1614158559.070847, 641, mainroad
1614158559.070847, 643, 
1614158559.121359, 519, 
1614158559.121359, 576, 
1614158559.121359, 605, sidewalk
1614158559.121359, 619, 
1614158559.121359, 625, 
1614158559.121359, 626, mainroad
1614158559.121359, 628, mainroad
1614158559.121359, 632, mainroad
1614158559.121359, 633, mainroad
1614158559.121359, 636, mainroad
1614158559.121359, 638, mainroad
1614158559.121359, 641, mainroad
1614158559.121359, 643, 
1614158559.170969, 519, 
1614158559.170969, 576, 
1614158559.170969, 605, sidewalk
1614158559.170969, 619, sidewalk
1614158559.170969, 625, 
1614158559.170969, 626, mainroad
1614158559.170969, 628, mainroad
1614158559.170969, 632, mainroad
1614158559.170969, 633, mainroad
1614158559.170969, 636, mainroad
1614158559.170969, 638, mainroad
1614158559.170969, 641, mainroad
1614158559.170969, 643, 
1614158559.221386, 519, 
1614158559.221386, 576, 
1614158559.221386, 605, sidewalk
1614158559.221386, 619, sidewalk
1614158559.221386, 625, 
1614158559.221386, 626, mainroad
1614158559.221386, 628, mainroad
1614158559.221386, 632, mainroad
1614158559.221386, 633, mainroad
1614158559.221386, 636, mainroad
1614158559.221386, 638, mainroad
1614158559.221386, 641, mainroad
1614158559.221386, 643, 
1614158559.270940, 519, 
1614158559.270940, 576, 
1614158559.270940, 605, sidewalk
1614158559.270940, 619, sidewalk
1614158559.270940, 625, 
1614158559.270940, 626, mainroad
1614158559.270940, 628, mainroad
1614158559.270940, 632, mainroad
1614158559.270940, 633, mainroad
1614158559.270940, 636, mainroad
1614158559.270940, 638, mainroad
1614158559.270940, 641, mainroad
1614158559.270940, 643, sidewalk
1614158559.321785, 519, 
1614158559.321785, 576, 
1614158559.321785, 605, sidewalk
1614158559.321785, 619, sidewalk
1614158559.321785, 625, 
1614158559.321785, 626, mainroad
1614158559.321785, 628, mainroad
1614158559.321785, 632, mainroad
1614158559.321785, 633, mainroad
1614158559.321785, 636, mainroad
1614158559.321785, 638, mainroad
1614158559.321785, 641, mainroad
1614158559.321785, 643, sidewalk
1614158559.371315, 519, 
1614158559.371315, 576, 
1614158559.371315, 605, sidewalk
1614158559.371315, 619, sidewalk
1614158559.371315, 625, 
1614158559.371315, 626, mainroad
1614158559.371315, 628, mainroad
1614158559.371315, 632, mainroad
1614158559.371315, 633, mainroad
1614158559.371315, 636, mainroad
1614158559.371315, 638, mainroad
1614158559.371315, 641, mainroad
1614158559.371315, 643, sidewalk
1614158559.421357, 519, 
1614158559.421357, 576, 
1614158559.421357, 605, sidewalk
1614158559.421357, 619, sidewalk
1614158559.421357, 625, 
1614158559.421357, 626, mainroad
1614158559.421357, 628, mainroad
1614158559.421357, 632, mainroad
1614158559.421357, 633, mainroad
1614158559.421357, 636, mainroad
1614158559.421357, 638, mainroad
1614158559.421357, 641, mainroad
1614158559.421357, 643, sidewalk
1614158559.471907, 519, 
1614158559.471907, 576, 
1614158559.471907, 605, sidewalk
1614158559.471907, 619, sidewalk
1614158559.471907, 625, 
1614158559.471907, 626, mainroad
1614158559.471907, 628, mainroad
1614158559.471907, 632, mainroad
1614158559.471907, 633, mainroad
1614158559.471907, 636, mainroad
1614158559.471907, 638, mainroad
1614158559.471907, 641, mainroad
1614158559.471907, 643, sidewalk
1614158559.521184, 519, 
1614158559.521184, 576, 
1614158559.521184, 605, sidewalk
1614158559.521184, 619, sidewalk
1614158559.521184, 625, 
1614158559.521184, 626, mainroad
1614158559.521184, 628, mainroad
1614158559.521184, 632, mainroad
1614158559.521184, 633, mainroad
1614158559.521184, 636, mainroad
1614158559.521184, 638, mainroad
1614158559.521184, 641, mainroad
1614158559.521184, 643, sidewalk
1614158559.571413, 519, 
1614158559.571413, 576, 
1614158559.571413, 605, sidewalk
1614158559.571413, 619, sidewalk
1614158559.571413, 625, 
1614158559.571413, 626, mainroad
1614158559.571413, 628, mainroad
1614158559.571413, 632, mainroad
1614158559.571413, 633, mainroad
1614158559.571413, 636, mainroad
1614158559.571413, 638, mainroad
1614158559.571413, 641, mainroad
1614158559.571413, 643, sidewalk
1614158559.621353, 519, 
1614158559.621353, 576, 
1614158559.621353, 605, sidewalk
1614158559.621353, 619, sidewalk
1614158559.621353, 625, 
1614158559.621353, 626, mainroad
1614158559.621353, 628, mainroad
1614158559.621353, 632, mainroad
1614158559.621353, 633, mainroad
1614158559.621353, 636, mainroad
1614158559.621353, 638, mainroad
1614158559.621353, 641, mainroad
1614158559.621353, 643, sidewalk
1614158559.671805, 519, 
1614158559.671805, 576, 
1614158559.671805, 605, sidewalk
1614158559.671805, 619, sidewalk
1614158559.671805, 625, 
1614158559.671805, 626, mainroad
1614158559.671805, 628, mainroad
1614158559.671805, 632, mainroad
1614158559.671805, 636, mainroad
1614158559.671805, 638, mainroad
1614158559.671805, 641, mainroad
1614158559.671805, 643, sidewalk
1614158559.721105, 519, 
1614158559.721105, 576, 
1614158559.721105, 605, sidewalk
1614158559.721105, 619, sidewalk
1614158559.721105, 625, 
1614158559.721105, 626, mainroad
1614158559.721105, 628, mainroad
1614158559.721105, 632, mainroad
1614158559.721105, 636, mainroad
1614158559.721105, 638, mainroad
1614158559.721105, 641, mainroad
1614158559.721105, 643, sidewalk
1614158559.721105, 645, mainroad
1614158559.771590, 519, 
1614158559.771590, 576, 
1614158559.771590, 605, sidewalk
1614158559.771590, 619, sidewalk
1614158559.771590, 625, 
1614158559.771590, 626, mainroad
1614158559.771590, 628, mainroad
1614158559.771590, 632, mainroad
1614158559.771590, 636, mainroad
1614158559.771590, 638, mainroad
1614158559.771590, 641, mainroad
1614158559.771590, 643, sidewalk
1614158559.771590, 645, mainroad
1614158559.821641, 519, 
1614158559.821641, 576, 
1614158559.821641, 605, sidewalk
1614158559.821641, 619, sidewalk
1614158559.821641, 625, 
1614158559.821641, 626, mainroad
1614158559.821641, 628, mainroad
1614158559.821641, 632, mainroad
1614158559.821641, 636, mainroad
1614158559.821641, 638, mainroad
1614158559.821641, 641, mainroad
1614158559.821641, 643, sidewalk
1614158559.821641, 645, mainroad
1614158559.871180, 519, 
1614158559.871180, 576, 
1614158559.871180, 605, sidewalk
1614158559.871180, 619, sidewalk
1614158559.871180, 625, 
1614158559.871180, 626, mainroad
1614158559.871180, 628, mainroad
1614158559.871180, 632, mainroad
1614158559.871180, 636, mainroad
1614158559.871180, 638, mainroad
1614158559.871180, 641, mainroad
1614158559.871180, 643, sidewalk
1614158559.871180, 645, mainroad
1614158559.921921, 519, 
1614158559.921921, 576, 
1614158559.921921, 605, sidewalk
1614158559.921921, 619, sidewalk
1614158559.921921, 625, 
1614158559.921921, 626, mainroad
1614158559.921921, 628, mainroad
1614158559.921921, 632, mainroad
1614158559.921921, 636, mainroad
1614158559.921921, 638, mainroad
1614158559.921921, 641, mainroad
1614158559.921921, 643, sidewalk
1614158559.921921, 645, mainroad
1614158559.971569, 519, 
1614158559.971569, 576, 
1614158559.971569, 605, sidewalk
1614158559.971569, 619, sidewalk
1614158559.971569, 625, 
1614158559.971569, 626, mainroad
1614158559.971569, 628, mainroad
1614158559.971569, 632, mainroad
1614158559.971569, 636, mainroad
1614158559.971569, 638, mainroad
1614158559.971569, 641, mainroad
1614158559.971569, 643, sidewalk
1614158559.971569, 645, mainroad
1614158560.021352, 519, 
1614158560.021352, 576, 
1614158560.021352, 605, sidewalk
1614158560.021352, 619, sidewalk
1614158560.021352, 625, 
1614158560.021352, 626, mainroad
1614158560.021352, 628, mainroad
1614158560.021352, 632, mainroad
1614158560.021352, 636, mainroad
1614158560.021352, 638, mainroad
1614158560.021352, 641, mainroad
1614158560.021352, 643, sidewalk
1614158560.021352, 645, mainroad
1614158560.071253, 519, 
1614158560.071253, 576, 
1614158560.071253, 605, sidewalk
1614158560.071253, 619, sidewalk
1614158560.071253, 625, 
1614158560.071253, 626, mainroad
1614158560.071253, 628, mainroad
1614158560.071253, 632, mainroad
1614158560.071253, 636, mainroad
1614158560.071253, 638, mainroad
1614158560.071253, 641, mainroad
1614158560.071253, 643, sidewalk
1614158560.071253, 645, mainroad
1614158560.121236, 519, 
1614158560.121236, 576, 
1614158560.121236, 605, sidewalk
1614158560.121236, 619, sidewalk
1614158560.121236, 625, 
1614158560.121236, 626, mainroad
1614158560.121236, 628, mainroad
1614158560.121236, 632, mainroad
1614158560.121236, 636, mainroad
1614158560.121236, 638, mainroad
1614158560.121236, 641, mainroad
1614158560.121236, 643, sidewalk
1614158560.121236, 645, mainroad
1614158560.171239, 519, 
1614158560.171239, 576, 
1614158560.171239, 605, sidewalk
1614158560.171239, 619, sidewalk
1614158560.171239, 625, 
1614158560.171239, 626, mainroad
1614158560.171239, 628, mainroad
1614158560.171239, 632, mainroad
1614158560.171239, 636, mainroad
1614158560.171239, 638, mainroad
1614158560.171239, 641, mainroad
1614158560.171239, 643, sidewalk
1614158560.171239, 645, mainroad
1614158560.222009, 519, 
1614158560.222009, 576, 
1614158560.222009, 605, sidewalk
1614158560.222009, 619, sidewalk
1614158560.222009, 625, 
1614158560.222009, 626, mainroad
1614158560.222009, 628, mainroad
1614158560.222009, 632, mainroad
1614158560.222009, 636, mainroad
1614158560.222009, 638, mainroad
1614158560.222009, 641, mainroad
1614158560.222009, 643, sidewalk
1614158560.222009, 645, mainroad
1614158560.271969, 519, 
1614158560.271969, 576, 
1614158560.271969, 605, sidewalk
1614158560.271969, 619, sidewalk
1614158560.271969, 625, 
1614158560.271969, 626, mainroad
1614158560.271969, 628, mainroad
1614158560.271969, 632, mainroad
1614158560.271969, 636, mainroad
1614158560.271969, 638, mainroad
1614158560.271969, 641, mainroad
1614158560.271969, 643, sidewalk
1614158560.271969, 645, mainroad
1614158560.321960, 519, 
1614158560.321960, 576, 
1614158560.321960, 605, sidewalk
1614158560.321960, 619, sidewalk
1614158560.321960, 625, 
1614158560.321960, 626, mainroad
1614158560.321960, 628, mainroad
1614158560.321960, 632, mainroad
1614158560.321960, 636, mainroad
1614158560.321960, 638, mainroad
1614158560.321960, 641, mainroad
1614158560.321960, 643, sidewalk
1614158560.321960, 645, mainroad
1614158560.371955, 519, 
1614158560.371955, 576, 
1614158560.371955, 605, sidewalk
1614158560.371955, 619, sidewalk
1614158560.371955, 625, 
1614158560.371955, 626, mainroad
1614158560.371955, 628, mainroad
1614158560.371955, 632, mainroad
1614158560.371955, 636, mainroad
1614158560.371955, 638, mainroad
1614158560.371955, 641, mainroad
1614158560.371955, 643, sidewalk
1614158560.371955, 645, mainroad
1614158560.421946, 519, 
1614158560.421946, 576, 
1614158560.421946, 605, sidewalk
1614158560.421946, 619, sidewalk
1614158560.421946, 625, 
1614158560.421946, 626, mainroad
1614158560.421946, 628, mainroad
1614158560.421946, 632, mainroad
1614158560.421946, 636, mainroad
1614158560.421946, 638, mainroad
1614158560.421946, 641, mainroad
1614158560.421946, 643, sidewalk
1614158560.421946, 645, mainroad
1614158560.471929, 519, 
1614158560.471929, 576, 
1614158560.471929, 605, sidewalk
1614158560.471929, 619, sidewalk
1614158560.471929, 625, 
1614158560.471929, 626, mainroad
1614158560.471929, 628, mainroad
1614158560.471929, 632, mainroad
1614158560.471929, 636, mainroad
1614158560.471929, 638, mainroad
1614158560.471929, 641, mainroad
1614158560.471929, 643, sidewalk
1614158560.471929, 645, mainroad
1614158560.521391, 519, 
1614158560.521391, 576, 
1614158560.521391, 605, sidewalk
1614158560.521391, 619, sidewalk
1614158560.521391, 625, 
1614158560.521391, 626, mainroad
1614158560.521391, 628, mainroad
1614158560.521391, 632, mainroad
1614158560.521391, 636, mainroad
1614158560.521391, 638, mainroad
1614158560.521391, 641, mainroad
1614158560.521391, 643, sidewalk
1614158560.521391, 645, mainroad
1614158560.571311, 519, 
1614158560.571311, 576, 
1614158560.571311, 605, sidewalk
1614158560.571311, 619, sidewalk
1614158560.571311, 625, 
1614158560.571311, 626, mainroad
1614158560.571311, 628, mainroad
1614158560.571311, 632, mainroad
1614158560.571311, 636, mainroad
1614158560.571311, 638, mainroad
1614158560.571311, 641, mainroad
1614158560.571311, 643, sidewalk
1614158560.571311, 645, mainroad
1614158560.620807, 519, 
1614158560.620807, 576, 
1614158560.620807, 605, sidewalk
1614158560.620807, 619, sidewalk
1614158560.620807, 625, 
1614158560.620807, 626, mainroad
1614158560.620807, 628, mainroad
1614158560.620807, 632, mainroad
1614158560.620807, 636, mainroad
1614158560.620807, 638, mainroad
1614158560.620807, 641, mainroad
1614158560.620807, 643, sidewalk
1614158560.620807, 645, mainroad
1614158560.671629, 519, 
1614158560.671629, 576, 
1614158560.671629, 605, sidewalk
1614158560.671629, 619, sidewalk
1614158560.671629, 625, 
1614158560.671629, 626, mainroad
1614158560.671629, 628, mainroad
1614158560.671629, 632, mainroad
1614158560.671629, 636, mainroad
1614158560.671629, 638, mainroad
1614158560.671629, 641, mainroad
1614158560.671629, 643, sidewalk
1614158560.671629, 645, mainroad
1614158560.721880, 519, 
1614158560.721880, 576, 
1614158560.721880, 605, sidewalk
1614158560.721880, 619, sidewalk
1614158560.721880, 625, 
1614158560.721880, 626, mainroad
1614158560.721880, 628, mainroad
1614158560.721880, 632, mainroad
1614158560.721880, 636, mainroad
1614158560.721880, 638, mainroad
1614158560.721880, 641, mainroad
1614158560.721880, 643, sidewalk
1614158560.721880, 645, mainroad
1614158560.771112, 519, 
1614158560.771112, 576, 
1614158560.771112, 605, sidewalk
1614158560.771112, 619, sidewalk
1614158560.771112, 625, 
1614158560.771112, 626, mainroad
1614158560.771112, 628, mainroad
1614158560.771112, 632, mainroad
1614158560.771112, 636, mainroad
1614158560.771112, 638, mainroad
1614158560.771112, 641, mainroad
1614158560.771112, 643, sidewalk
1614158560.771112, 645, mainroad
1614158560.821115, 519, 
1614158560.821115, 576, 
1614158560.821115, 605, sidewalk
1614158560.821115, 619, sidewalk
1614158560.821115, 625, 
1614158560.821115, 626, mainroad
1614158560.821115, 632, mainroad
1614158560.821115, 636, mainroad
1614158560.821115, 638, mainroad
1614158560.821115, 641, mainroad
1614158560.821115, 643, sidewalk
1614158560.821115, 645, mainroad
1614158560.871095, 519, 
1614158560.871095, 576, 
1614158560.871095, 605, sidewalk
1614158560.871095, 619, sidewalk
1614158560.871095, 625, 
1614158560.871095, 626, mainroad
1614158560.871095, 632, mainroad
1614158560.871095, 636, mainroad
1614158560.871095, 638, mainroad
1614158560.871095, 641, mainroad
1614158560.871095, 643, sidewalk
1614158560.871095, 645, mainroad
1614158560.921633, 519, 
1614158560.921633, 576, 
1614158560.921633, 605, sidewalk
1614158560.921633, 619, sidewalk
1614158560.921633, 625, 
1614158560.921633, 626, mainroad
1614158560.921633, 632, mainroad
1614158560.921633, 636, mainroad
1614158560.921633, 638, mainroad
1614158560.921633, 641, mainroad
1614158560.921633, 643, sidewalk
1614158560.921633, 645, mainroad
1614158560.971034, 519, 
1614158560.971034, 576, 
1614158560.971034, 605, sidewalk
1614158560.971034, 619, sidewalk
1614158560.971034, 625, 
1614158560.971034, 626, mainroad
1614158560.971034, 632, mainroad
1614158560.971034, 636, mainroad
1614158560.971034, 638, mainroad
1614158560.971034, 641, mainroad
1614158560.971034, 643, sidewalk
1614158560.971034, 645, mainroad
1614158561.021551, 519, 
1614158561.021551, 576, 
1614158561.021551, 605, sidewalk
1614158561.021551, 619, sidewalk
1614158561.021551, 625, 
1614158561.021551, 626, mainroad
1614158561.021551, 632, mainroad
1614158561.021551, 636, mainroad
1614158561.021551, 638, mainroad
1614158561.021551, 641, mainroad
1614158561.021551, 643, sidewalk
1614158561.021551, 645, mainroad
1614158561.070952, 519, 
1614158561.070952, 576, 
1614158561.070952, 605, sidewalk
1614158561.070952, 619, sidewalk
1614158561.070952, 625, 
1614158561.070952, 626, mainroad
1614158561.070952, 632, mainroad
1614158561.070952, 636, mainroad
1614158561.070952, 638, mainroad
1614158561.070952, 641, mainroad
1614158561.070952, 643, sidewalk
1614158561.070952, 645, mainroad
1614158561.121337, 519, 
1614158561.121337, 576, 
1614158561.121337, 605, sidewalk
1614158561.121337, 619, sidewalk
1614158561.121337, 625, 
1614158561.121337, 626, mainroad
1614158561.121337, 632, mainroad
1614158561.121337, 636, mainroad
1614158561.121337, 638, mainroad
1614158561.121337, 641, mainroad
1614158561.121337, 643, sidewalk
1614158561.121337, 645, mainroad
1614158561.170883, 519, 
1614158561.170883, 576, 
1614158561.170883, 605, sidewalk
1614158561.170883, 619, sidewalk
1614158561.170883, 625, 
1614158561.170883, 626, mainroad
1614158561.170883, 632, mainroad
1614158561.170883, 636, mainroad
1614158561.170883, 638, mainroad
1614158561.170883, 641, mainroad
1614158561.170883, 643, sidewalk
1614158561.170883, 645, mainroad
1614158561.221370, 519, 
1614158561.221370, 576, 
1614158561.221370, 605, sidewalk
1614158561.221370, 619, sidewalk
1614158561.221370, 625, 
1614158561.221370, 626, mainroad
1614158561.221370, 632, mainroad
1614158561.221370, 636, mainroad
1614158561.221370, 638, mainroad
1614158561.221370, 641, mainroad
1614158561.221370, 643, sidewalk
1614158561.221370, 645, mainroad
1614158561.270870, 519, 
1614158561.270870, 576, 
1614158561.270870, 605, sidewalk
1614158561.270870, 619, sidewalk
1614158561.270870, 625, 
1614158561.270870, 626, mainroad
1614158561.270870, 632, mainroad
1614158561.270870, 636, mainroad
1614158561.270870, 638, mainroad
1614158561.270870, 641, mainroad
1614158561.270870, 643, sidewalk
1614158561.270870, 645, mainroad
1614158561.321277, 519, 
1614158561.321277, 576, 
1614158561.321277, 605, sidewalk
1614158561.321277, 619, sidewalk
1614158561.321277, 625, 
1614158561.321277, 626, mainroad
1614158561.321277, 632, mainroad
1614158561.321277, 636, mainroad
1614158561.321277, 638, mainroad
1614158561.321277, 641, mainroad
1614158561.321277, 643, sidewalk
1614158561.321277, 645, mainroad
1614158561.370409, 519, 
1614158561.370409, 576, 
1614158561.370409, 605, sidewalk
1614158561.370409, 619, sidewalk
1614158561.370409, 625, 
1614158561.370409, 626, mainroad
1614158561.370409, 632, mainroad
1614158561.370409, 636, mainroad
1614158561.370409, 638, mainroad
1614158561.370409, 641, mainroad
1614158561.370409, 643, sidewalk
1614158561.370409, 645, mainroad
1614158561.420412, 519, 
1614158561.420412, 576, 
1614158561.420412, 605, sidewalk
1614158561.420412, 619, sidewalk
1614158561.420412, 625, 
1614158561.420412, 626, mainroad
1614158561.420412, 632, mainroad
1614158561.420412, 636, mainroad
1614158561.420412, 638, mainroad
1614158561.420412, 641, mainroad
1614158561.420412, 643, sidewalk
1614158561.420412, 645, mainroad
1614158561.471195, 519, 
1614158561.471195, 576, 
1614158561.471195, 605, sidewalk
1614158561.471195, 619, sidewalk
1614158561.471195, 625, 
1614158561.471195, 626, mainroad
1614158561.471195, 632, mainroad
1614158561.471195, 636, mainroad
1614158561.471195, 638, mainroad
1614158561.471195, 641, mainroad
1614158561.471195, 643, sidewalk
1614158561.471195, 645, mainroad
1614158561.521051, 519, 
1614158561.521051, 576, 
1614158561.521051, 605, sidewalk
1614158561.521051, 619, sidewalk
1614158561.521051, 625, 
1614158561.521051, 626, mainroad
1614158561.521051, 632, mainroad
1614158561.521051, 636, mainroad
1614158561.521051, 638, mainroad
1614158561.521051, 641, mainroad
1614158561.521051, 643, sidewalk
1614158561.521051, 645, mainroad
1614158561.570379, 519, 
1614158561.570379, 576, 
1614158561.570379, 605, sidewalk
1614158561.570379, 619, sidewalk
1614158561.570379, 625, 
1614158561.570379, 626, mainroad
1614158561.570379, 632, mainroad
1614158561.570379, 636, mainroad
1614158561.570379, 638, mainroad
1614158561.570379, 641, mainroad
1614158561.570379, 643, sidewalk
1614158561.570379, 645, mainroad
1614158561.621014, 519, 
1614158561.621014, 576, 
1614158561.621014, 605, sidewalk
1614158561.621014, 619, sidewalk
1614158561.621014, 625, 
1614158561.621014, 626, mainroad
1614158561.621014, 632, mainroad
1614158561.621014, 636, mainroad
1614158561.621014, 638, mainroad
1614158561.621014, 641, mainroad
1614158561.621014, 643, sidewalk
1614158561.621014, 645, mainroad
1614158561.621014, 648, mainroad
1614158561.670677, 519, 
1614158561.670677, 576, 
1614158561.670677, 605, sidewalk
1614158561.670677, 619, sidewalk
1614158561.670677, 625, 
1614158561.670677, 626, mainroad
1614158561.670677, 632, mainroad
1614158561.670677, 636, mainroad
1614158561.670677, 638, mainroad
1614158561.670677, 641, mainroad
1614158561.670677, 643, sidewalk
1614158561.670677, 645, mainroad
1614158561.670677, 648, mainroad
1614158561.720822, 519, 
1614158561.720822, 576, 
1614158561.720822, 605, sidewalk
1614158561.720822, 619, sidewalk
1614158561.720822, 625, 
1614158561.720822, 626, mainroad
1614158561.720822, 632, mainroad
1614158561.720822, 636, mainroad
1614158561.720822, 638, mainroad
1614158561.720822, 641, mainroad
1614158561.720822, 643, sidewalk
1614158561.720822, 645, mainroad
1614158561.720822, 648, mainroad
1614158561.770944, 519, 
1614158561.770944, 576, 
1614158561.770944, 605, sidewalk
1614158561.770944, 619, sidewalk
1614158561.770944, 625, 
1614158561.770944, 626, mainroad
1614158561.770944, 632, mainroad
1614158561.770944, 636, mainroad
1614158561.770944, 638, mainroad
1614158561.770944, 641, mainroad
1614158561.770944, 643, sidewalk
1614158561.770944, 645, mainroad
1614158561.770944, 648, mainroad
1614158561.820831, 519, 
1614158561.820831, 576, 
1614158561.820831, 605, sidewalk
1614158561.820831, 619, sidewalk
1614158561.820831, 625, 
1614158561.820831, 626, mainroad
1614158561.820831, 632, mainroad
1614158561.820831, 636, mainroad
1614158561.820831, 638, mainroad
1614158561.820831, 641, mainroad
1614158561.820831, 643, sidewalk
1614158561.820831, 645, mainroad
1614158561.820831, 648, mainroad
1614158561.871240, 519, 
1614158561.871240, 576, 
1614158561.871240, 605, sidewalk
1614158561.871240, 619, sidewalk
1614158561.871240, 625, 
1614158561.871240, 626, mainroad
1614158561.871240, 632, mainroad
1614158561.871240, 636, mainroad
1614158561.871240, 638, mainroad
1614158561.871240, 641, mainroad
1614158561.871240, 643, sidewalk
1614158561.871240, 645, mainroad
1614158561.871240, 648, mainroad
1614158561.920452, 519, 
1614158561.920452, 576, 
1614158561.920452, 605, sidewalk
1614158561.920452, 619, sidewalk
1614158561.920452, 625, 
1614158561.920452, 626, mainroad
1614158561.920452, 632, mainroad
1614158561.920452, 636, mainroad
1614158561.920452, 638, mainroad
1614158561.920452, 641, mainroad
1614158561.920452, 643, sidewalk
1614158561.920452, 645, mainroad
1614158561.920452, 648, mainroad
1614158561.970495, 519, 
1614158561.970495, 576, 
1614158561.970495, 605, sidewalk
1614158561.970495, 619, sidewalk
1614158561.970495, 625, 
1614158561.970495, 626, mainroad
1614158561.970495, 632, mainroad
1614158561.970495, 636, mainroad
1614158561.970495, 638, mainroad
1614158561.970495, 641, mainroad
1614158561.970495, 643, sidewalk
1614158561.970495, 645, mainroad
1614158561.970495, 648, mainroad
1614158562.020430, 519, 
1614158562.020430, 576, 
1614158562.020430, 605, sidewalk
1614158562.020430, 619, sidewalk
1614158562.020430, 625, 
1614158562.020430, 626, mainroad
1614158562.020430, 632, mainroad
1614158562.020430, 636, mainroad
1614158562.020430, 638, mainroad
1614158562.020430, 641, mainroad
1614158562.020430, 643, sidewalk
1614158562.020430, 645, mainroad
1614158562.020430, 648, mainroad
1614158562.070837, 519, 
1614158562.070837, 576, 
1614158562.070837, 605, sidewalk
1614158562.070837, 619, sidewalk
1614158562.070837, 625, 
1614158562.070837, 626, mainroad
1614158562.070837, 632, mainroad
1614158562.070837, 636, mainroad
1614158562.070837, 638, mainroad
1614158562.070837, 641, mainroad
1614158562.070837, 643, sidewalk
1614158562.070837, 645, mainroad
1614158562.070837, 648, mainroad
1614158562.121381, 519, 
1614158562.121381, 576, 
1614158562.121381, 605, sidewalk
1614158562.121381, 619, sidewalk
1614158562.121381, 625, 
1614158562.121381, 626, mainroad
1614158562.121381, 636, mainroad
1614158562.121381, 638, mainroad
1614158562.121381, 641, mainroad
1614158562.121381, 643, sidewalk
1614158562.121381, 645, mainroad
1614158562.121381, 648, mainroad
1614158562.170908, 519, 
1614158562.170908, 576, 
1614158562.170908, 605, sidewalk
1614158562.170908, 619, sidewalk
1614158562.170908, 625, 
1614158562.170908, 626, mainroad
1614158562.170908, 638, mainroad
1614158562.170908, 641, mainroad
1614158562.170908, 643, sidewalk
1614158562.170908, 645, mainroad
1614158562.170908, 648, mainroad
1614158562.221634, 519, 
1614158562.221634, 576, 
1614158562.221634, 605, sidewalk
1614158562.221634, 619, sidewalk
1614158562.221634, 625, 
1614158562.221634, 626, mainroad
1614158562.221634, 638, mainroad
1614158562.221634, 641, mainroad
1614158562.221634, 643, sidewalk
1614158562.221634, 645, mainroad
1614158562.221634, 648, mainroad
1614158562.270914, 519, 
1614158562.270914, 576, 
1614158562.270914, 605, sidewalk
1614158562.270914, 619, sidewalk
1614158562.270914, 625, 
1614158562.270914, 626, mainroad
1614158562.270914, 638, mainroad
1614158562.270914, 641, mainroad
1614158562.270914, 643, sidewalk
1614158562.270914, 645, mainroad
1614158562.270914, 648, mainroad
1614158562.321425, 519, 
1614158562.321425, 576, 
1614158562.321425, 605, sidewalk
1614158562.321425, 619, sidewalk
1614158562.321425, 625, 
1614158562.321425, 626, mainroad
1614158562.321425, 638, mainroad
1614158562.321425, 641, mainroad
1614158562.321425, 643, sidewalk
1614158562.321425, 645, mainroad
1614158562.321425, 648, mainroad
1614158562.371306, 519, 
1614158562.371306, 576, 
1614158562.371306, 605, sidewalk
1614158562.371306, 619, sidewalk
1614158562.371306, 625, 
1614158562.371306, 626, mainroad
1614158562.371306, 638, mainroad
1614158562.371306, 641, mainroad
1614158562.371306, 643, sidewalk
1614158562.371306, 645, mainroad
1614158562.371306, 648, mainroad
1614158562.421342, 519, 
1614158562.421342, 576, 
1614158562.421342, 605, sidewalk
1614158562.421342, 619, sidewalk
1614158562.421342, 625, 
1614158562.421342, 626, mainroad
1614158562.421342, 638, mainroad
1614158562.421342, 641, mainroad
1614158562.421342, 643, sidewalk
1614158562.421342, 645, mainroad
1614158562.421342, 648, mainroad
1614158562.470813, 519, 
1614158562.470813, 576, 
1614158562.470813, 605, sidewalk
1614158562.470813, 619, sidewalk
1614158562.470813, 625, 
1614158562.470813, 626, mainroad
1614158562.470813, 638, mainroad
1614158562.470813, 641, mainroad
1614158562.470813, 643, sidewalk
1614158562.470813, 645, mainroad
1614158562.470813, 648, mainroad
1614158562.520807, 519, 
1614158562.520807, 576, 
1614158562.520807, 605, sidewalk
1614158562.520807, 619, sidewalk
1614158562.520807, 625, 
1614158562.520807, 626, mainroad
1614158562.520807, 638, mainroad
1614158562.520807, 641, mainroad
1614158562.520807, 643, sidewalk
1614158562.520807, 645, mainroad
1614158562.520807, 648, mainroad
